document_graph	neural_features_dbow	neural_features_dm	topic_features	word_features	keyword_features	relational_features_char	relational_features_token	char_features
dim_203 : 5.65	37_0 : 5.19	4_1 : 5.57	topic_0 : 0.0	00001 : 0.0	00008 : 0.0	9--7--w : 3.9	covid19--5--disease : 1.64	on : 2.04
dim_159 : 4.54	155_0 : 4.91	369_1 : 5.01	topic_1 : 0.0	2019ncov : 0.0	000257 : 0.0	h--5--m : 3.73	patients--5--severe : 1.59	in : 1.91
dim_218 : 3.81	388_0 : 4.58	158_1 : 3.75	topic_2 : 0.0	30day : 0.0	002001003x109lp005 : 0.0	e--3--c : 3.66	review--4--disease : 1.21	etec : 1.46
dim_207 : 3.77	241_0 : 4.5	379_1 : 3.59	topic_3 : 0.0	abbott : 0.0	011050 : 0.0	e--3--i : 3.53	mortality--3--patients : 1.18	l  : 1.31
dim_391 : 3.57	427_0 : 3.86	127_1 : 3.32	topic_4 : 0.0	abbreviated : 0.0	013099 : 0.0	1--5--w : 3.38	covid19--5--sarscov2 : 1.12	bo : 1.18
dim_254 : 3.54	369_0 : 3.77	441_1 : 3.2	topic_5 : 0.0	abdominal : 0.0	015092 : 0.0	x--8--2 : 3.18	infection--5--pandemic : 1.04	tec : 1.16
dim_92 : 2.93	170_0 : 3.7	44_1 : 3.15	topic_6 : 0.0	ability : 0.0	035090 : 0.0	m--4--o : 3.03	covid19--5--severe : 0.9	bor : 1.04
dim_462 : 2.63	258_0 : 3.55	0_1 : 2.9	topic_7 : 0.0	abnormal : 0.0	044591 : 0.0	p--4--y : 3.01	patients--2--covid19 : 0.9	re : 1.03
dim_264 : 2.61	302_0 : 3.4	228_1 : 2.78	topic_8 : 0.0	abnormalities : 0.0	05481396 : 0.0	1--7--w : 2.91	covid19--5--levels : 0.88	ce : 1.0
dim_325 : 2.57	275_0 : 3.37	461_1 : 2.61	topic_9 : 0.0	abroad : 0.0	05mgl : 0.0	i--4--t : 2.82	disease--5--clinical : 0.87	er : 0.99
dim_211 : 2.48	224_0 : 3.34	186_1 : 2.55	topic_10 : 0.0	absence : 0.0	074111 : 0.0	e--5--u : 2.79	although--5--disease : 0.8	 l : 0.83
dim_162 : 2.46	447_0 : 3.27	365_1 : 2.48	topic_11 : 0.0	absolute : 0.0	08491135 : 0.0	v--4--u : 2.69	infection--5--patients : 0.78	ete : 0.82
dim_151 : 2.45	228_0 : 3.26	300_1 : 2.46	topic_12 : 0.0	academic : 0.0	0876309729 : 0.0	c--3--v : 2.66	covid19--5--compared : 0.77	ea : 0.78
dim_154 : 2.45	80_0 : 3.2	419_1 : 2.45	topic_13 : 0.0	accelerate : 0.0	08960945 : 0.0	r--5--l : 2.63	covid19--5--p : 0.75	 dia : 0.72
dim_340 : 2.41	397_0 : 3.1	350_1 : 2.36	topic_14 : 0.0	accelerated : 0.0	09246 : 0.0	g--6--y : 2.56	review--5--infection : 0.74	gno : 0.65
dim_104 : 2.4	356_0 : 3.01	412_1 : 2.33	topic_15 : 0.0	accepted : 0.0	094099 : 0.0	c--2--y : 2.45	patients--5--compared : 0.7	mi : 0.65
dim_160 : 2.31	234_0 : 2.93	418_1 : 2.23	topic_16 : 0.0	access : 0.0	0946409778 : 0.0	n--2--i : 2.35	disease--5--severe : 0.65	 la : 0.63
dim_133 : 2.29	251_0 : 2.84	229_1 : 2.19	topic_17 : 0.0	accessible : 0.0	0961309906 : 0.0	d--5--i : 2.35	disease--5--sarscov2 : 0.6	em : 0.63
dim_201 : 2.27	449_0 : 2.79	421_1 : 2.15	topic_18 : 0.0	accessing : 0.0	09621 : 0.0	r--2--i : 2.33	caused--5--methods : 0.57	ro : 0.61
dim_190 : 2.14	46_0 : 2.75	202_1 : 2.08	topic_19 : 0.0	accompanied : 0.0	09760 : 0.0	9--4--f : 2.26	coronavirus--4--diagnosis : 0.55	dia : 0.6
dim_473 : 2.07	252_0 : 2.66	113_1 : 2.06	topic_20 : 0.0	accompanying : 0.0	1000patient : 0.0	k--8--x : 2.17	review--4--pandemic : 0.54	al  : 0.58
dim_67 : 2.06	254_0 : 2.49	486_1 : 2.04	topic_21 : 0.0	according : 0.0	100150 : 0.0	h--6--r : 2.15	covid19--4--available : 0.47	gnos : 0.57
dim_230 : 2.05	28_0 : 2.48	155_1 : 1.97	x	accordingly : 0.0	100fold : 0.0	b--7--y : 2.14	patients--5--higher : 0.44	abor : 0.54
dim_176 : 2.01	246_0 : 2.38	125_1 : 1.94	x	account : 0.0	1016399 : 0.0	 --2--o : 2.11	methods--4--clinical : 0.43	dete : 0.54
dim_171 : 2.0	232_0 : 2.34	302_1 : 1.92	x	accounting : 0.0	103304 : 0.0	r--3--i : 2.06	findings--4--patients : 0.43	an : 0.52
