mean_fit_time	std_fit_time	mean_score_time	std_score_time	param_alpha	param_l1_ratio	param_loss	param_penalty	params	split0_test_score	split1_test_score	split2_test_score	split3_test_score	split4_test_score	mean_test_score	std_test_score	rank_test_score	learner ID
5.470158815383911	0.20155811143292923	0.07733745574951172	0.029901600424301934	0.01	0	hinge	elasticnet	{'alpha': 0.01, 'l1_ratio': 0, 'loss': 'hinge', 'penalty': 'elasticnet'}	0.0	0.0	0.0	0.0	0.0	0.0	0.0	21	Learner_0
6.415839910507202	0.09350926628702476	0.057299327850341794	0.007172602858708288	0.01	0	log	elasticnet	{'alpha': 0.01, 'l1_ratio': 0, 'loss': 'log', 'penalty': 'elasticnet'}	0.0	0.0	0.0	0.0	0.0	0.0	0.0	21	Learner_0
5.3867950439453125	0.1865106482171706	0.08581538200378418	0.02890871814919407	0.01	0.05	hinge	elasticnet	{'alpha': 0.01, 'l1_ratio': 0.05, 'loss': 'hinge', 'penalty': 'elasticnet'}	0.0	0.0	0.0	0.0	0.0	0.0	0.0	21	Learner_0
10.232392168045044	0.3477086441103138	0.07817058563232422	0.029542504250979776	0.01	0.05	log	elasticnet	{'alpha': 0.01, 'l1_ratio': 0.05, 'loss': 'log', 'penalty': 'elasticnet'}	0.0	0.0	0.0	0.0	0.0	0.0	0.0	21	Learner_0
4.305263423919678	0.12989708568296293	0.05677800178527832	0.012810308821994737	0.01	0.25	hinge	elasticnet	{'alpha': 0.01, 'l1_ratio': 0.25, 'loss': 'hinge', 'penalty': 'elasticnet'}	0.0	0.0	0.0	0.0	0.0	0.0	0.0	21	Learner_0
14.474461841583253	0.26080341472577406	0.08225359916687011	0.029383315896966127	0.01	0.25	log	elasticnet	{'alpha': 0.01, 'l1_ratio': 0.25, 'loss': 'log', 'penalty': 'elasticnet'}	0.0	0.0	0.0	0.0	0.0	0.0	0.0	21	Learner_0
3.715849590301514	0.3558346852623775	0.062279796600341795	0.023383715592382785	0.01	0.3	hinge	elasticnet	{'alpha': 0.01, 'l1_ratio': 0.3, 'loss': 'hinge', 'penalty': 'elasticnet'}	0.0	0.0	0.0	0.0	0.0	0.0	0.0	21	Learner_0
14.04133849143982	0.09275737201795652	0.05331740379333496	0.004159168471416008	0.01	0.3	log	elasticnet	{'alpha': 0.01, 'l1_ratio': 0.3, 'loss': 'log', 'penalty': 'elasticnet'}	0.0	0.0	0.0	0.0	0.0	0.0	0.0	21	Learner_0
3.4169920444488526	0.22107418300523893	0.06864347457885742	0.024652839305993962	0.01	0.6	hinge	elasticnet	{'alpha': 0.01, 'l1_ratio': 0.6, 'loss': 'hinge', 'penalty': 'elasticnet'}	0.0	0.0	0.0	0.0	0.0	0.0	0.0	21	Learner_0
13.906055450439453	0.3807115305079083	0.05585856437683105	0.00591953471820251	0.01	0.6	log	elasticnet	{'alpha': 0.01, 'l1_ratio': 0.6, 'loss': 'log', 'penalty': 'elasticnet'}	0.0	0.0	0.0	0.0	0.0	0.0	0.0	21	Learner_0
3.0415804862976072	0.06280555268091649	0.05614838600158691	0.011857587571351304	0.01	0.8	hinge	elasticnet	{'alpha': 0.01, 'l1_ratio': 0.8, 'loss': 'hinge', 'penalty': 'elasticnet'}	0.0	0.0	0.0	0.0	0.0	0.0	0.0	21	Learner_0
13.853262805938721	0.6011108541142488	0.061880636215209964	0.008223797879236413	0.01	0.8	log	elasticnet	{'alpha': 0.01, 'l1_ratio': 0.8, 'loss': 'log', 'penalty': 'elasticnet'}	0.0	0.0	0.0	0.0	0.0	0.0	0.0	21	Learner_0
3.193735361099243	0.24808240977013227	0.05532307624816894	0.006891704584494337	0.01	0.95	hinge	elasticnet	{'alpha': 0.01, 'l1_ratio': 0.95, 'loss': 'hinge', 'penalty': 'elasticnet'}	0.0	0.0	0.0	0.0	0.0	0.0	0.0	21	Learner_0
14.427478647232055	0.5726273068352633	0.06540932655334472	0.018408358731916697	0.01	0.95	log	elasticnet	{'alpha': 0.01, 'l1_ratio': 0.95, 'loss': 'log', 'penalty': 'elasticnet'}	0.0	0.0	0.0	0.0	0.0	0.0	0.0	21	Learner_0
3.660965013504028	0.602731722952842	0.056318473815917966	0.01813960816107561	0.01	1	hinge	elasticnet	{'alpha': 0.01, 'l1_ratio': 1, 'loss': 'hinge', 'penalty': 'elasticnet'}	0.0	0.0	0.0	0.0	0.0	0.0	0.0	21	Learner_0
14.557131481170654	0.6355103495796204	0.057294464111328124	0.0028240657349879166	0.01	1	log	elasticnet	{'alpha': 0.01, 'l1_ratio': 1, 'loss': 'log', 'penalty': 'elasticnet'}	0.0	0.0	0.0	0.0	0.0	0.0	0.0	21	Learner_0
6.873493957519531	0.43219378119256335	0.056200265884399414	0.007627632752792011	0.001	0	hinge	elasticnet	{'alpha': 0.001, 'l1_ratio': 0, 'loss': 'hinge', 'penalty': 'elasticnet'}	0.0	0.0	0.0	0.0	0.0	0.0	0.0	21	Learner_0
6.8347187519073485	0.4510264573580394	0.06606330871582031	0.015046534867266877	0.001	0	log	elasticnet	{'alpha': 0.001, 'l1_ratio': 0, 'loss': 'log', 'penalty': 'elasticnet'}	0.0	0.0	0.0	0.0	0.0	0.0	0.0	21	Learner_0
5.5269522190094	0.20821086411671672	0.061536121368408206	0.007810514538179891	0.001	0.05	hinge	elasticnet	{'alpha': 0.001, 'l1_ratio': 0.05, 'loss': 'hinge', 'penalty': 'elasticnet'}	0.0	0.0	0.0	0.0	0.0	0.0	0.0	21	Learner_0
7.887295818328857	0.7846553427490971	0.05097036361694336	0.005231595729049455	0.001	0.05	log	elasticnet	{'alpha': 0.001, 'l1_ratio': 0.05, 'loss': 'log', 'penalty': 'elasticnet'}	0.0	0.0	0.0	0.0	0.0	0.0	0.0	21	Learner_0
3.7996871948242186	0.1119961019455228	0.07655324935913085	0.012098033688095946	0.001	0.25	hinge	elasticnet	{'alpha': 0.001, 'l1_ratio': 0.25, 'loss': 'hinge', 'penalty': 'elasticnet'}	0.0	0.0	0.0	0.0	0.0	0.0	0.0	21	Learner_0
8.204975175857545	0.1769965354250107	0.05330042839050293	0.003837835612897905	0.001	0.25	log	elasticnet	{'alpha': 0.001, 'l1_ratio': 0.25, 'loss': 'log', 'penalty': 'elasticnet'}	0.0	0.0	0.0	0.0	0.0	0.0	0.0	21	Learner_0
3.7591617107391357	0.09563251134403941	0.05653591156005859	0.008237247040329996	0.001	0.3	hinge	elasticnet	{'alpha': 0.001, 'l1_ratio': 0.3, 'loss': 'hinge', 'penalty': 'elasticnet'}	0.0	0.0	0.0	0.0	0.0	0.0	0.0	21	Learner_0
8.015277671813966	0.0939987503460035	0.08253359794616699	0.01153015387328946	0.001	0.3	log	elasticnet	{'alpha': 0.001, 'l1_ratio': 0.3, 'loss': 'log', 'penalty': 'elasticnet'}	0.0	0.0	0.0	0.0	0.0	0.0	0.0	21	Learner_0
3.7349456787109374	0.07643270801230137	0.05790276527404785	0.011454086802150605	0.001	0.6	hinge	elasticnet	{'alpha': 0.001, 'l1_ratio': 0.6, 'loss': 'hinge', 'penalty': 'elasticnet'}	0.0	0.0	0.0	0.0	0.0	0.0	0.0	21	Learner_0
7.5621413230896	0.619725272172935	0.05006589889526367	0.0044423235851920664	0.001	0.6	log	elasticnet	{'alpha': 0.001, 'l1_ratio': 0.6, 'loss': 'log', 'penalty': 'elasticnet'}	0.0	0.0	0.0	0.0	0.0	0.0	0.0	21	Learner_0
3.3003665924072267	0.2649764412023975	0.05004115104675293	0.004585994519888394	0.001	0.8	hinge	elasticnet	{'alpha': 0.001, 'l1_ratio': 0.8, 'loss': 'hinge', 'penalty': 'elasticnet'}	0.0	0.0	0.0	0.0	0.0	0.0	0.0	21	Learner_0
7.7205687999725345	0.03205371367644311	0.04737973213195801	0.00101627037316267	0.001	0.8	log	elasticnet	{'alpha': 0.001, 'l1_ratio': 0.8, 'loss': 'log', 'penalty': 'elasticnet'}	0.0	0.0	0.0	0.0	0.0	0.0	0.0	21	Learner_0
3.3995877742767333	0.04961753546019309	0.05486340522766113	0.0015093510618218423	0.001	0.95	hinge	elasticnet	{'alpha': 0.001, 'l1_ratio': 0.95, 'loss': 'hinge', 'penalty': 'elasticnet'}	0.0	0.0	0.0	0.0	0.0	0.0	0.0	21	Learner_0
7.492834806442261	0.0648535260014374	0.04899110794067383	0.0010737323540332302	0.001	0.95	log	elasticnet	{'alpha': 0.001, 'l1_ratio': 0.95, 'loss': 'log', 'penalty': 'elasticnet'}	0.0	0.0	0.0	0.0	0.0	0.0	0.0	21	Learner_0
3.2772337436676025	0.26258755814026713	0.05135016441345215	0.006379733383352824	0.001	1	hinge	elasticnet	{'alpha': 0.001, 'l1_ratio': 1, 'loss': 'hinge', 'penalty': 'elasticnet'}	0.0	0.0	0.0	0.0	0.0	0.0	0.0	21	Learner_0
7.465466403961182	0.04916285520113095	0.049611663818359374	0.0017260881776250318	0.001	1	log	elasticnet	{'alpha': 0.001, 'l1_ratio': 1, 'loss': 'log', 'penalty': 'elasticnet'}	0.0	0.0	0.0	0.0	0.0	0.0	0.0	21	Learner_0
10.998251295089721	0.4975628188317132	0.05512871742248535	0.006970409647287614	0.0001	0	hinge	elasticnet	{'alpha': 0.0001, 'l1_ratio': 0, 'loss': 'hinge', 'penalty': 'elasticnet'}	0.7879656160458454	0.7848101265822784	0.7914285714285714	0.7858156028368795	0.7456140350877193	0.7791267903962588	0.016909192445944427	1	Learner_0
8.085345792770386	0.7800899726319916	0.04919114112854004	0.007079810519815852	0.0001	0	log	elasticnet	{'alpha': 0.0001, 'l1_ratio': 0, 'loss': 'log', 'penalty': 'elasticnet'}	0.4618249534450652	0.47339449541284406	0.5107142857142857	0.5177304964539007	0.5526770293609672	0.5032682520774125	0.0326061820542252	9	Learner_0
11.703538131713866	0.6107537113197153	0.05223512649536133	0.002998602224395027	0.0001	0.05	hinge	elasticnet	{'alpha': 0.0001, 'l1_ratio': 0.05, 'loss': 'hinge', 'penalty': 'elasticnet'}	0.7982954545454546	0.7842031029619183	0.7863247863247864	0.7645348837209304	0.7299703264094956	0.772665710792517	0.023939806698426137	2	Learner_0
8.508294916152954	0.6006237535834764	0.05231523513793945	0.0017499535150917768	0.0001	0.05	log	elasticnet	{'alpha': 0.0001, 'l1_ratio': 0.05, 'loss': 'log', 'penalty': 'elasticnet'}	0.458955223880597	0.5062836624775584	0.4323308270676691	0.5375218150087261	0.4256120527306968	0.4721407162330495	0.04327592833578923	10	Learner_0
5.754474782943726	0.27847643175031805	0.05040445327758789	0.0022750495462315868	0.0001	0.25	hinge	elasticnet	{'alpha': 0.0001, 'l1_ratio': 0.25, 'loss': 'hinge', 'penalty': 'elasticnet'}	0.7341389728096677	0.7294117647058823	0.7569955817378499	0.7649635036496351	0.7190332326283988	0.7409086111062868	0.017285636480877387	3	Learner_0
8.369713354110718	0.49188379134655397	0.06143045425415039	0.01870383212580743	0.0001	0.25	log	elasticnet	{'alpha': 0.0001, 'l1_ratio': 0.25, 'loss': 'log', 'penalty': 'elasticnet'}	0.3708086785009862	0.38910505836575876	0.35968379446640314	0.36542239685658157	0.377431906614786	0.3724903669609031	0.010171129348879258	13	Learner_0
4.895289754867553	0.6334951116898807	0.05113668441772461	0.008981626912136694	0.0001	0.3	hinge	elasticnet	{'alpha': 0.0001, 'l1_ratio': 0.3, 'loss': 'hinge', 'penalty': 'elasticnet'}	0.7443946188340808	0.7251114413075779	0.7514792899408284	0.7507418397626112	0.7160120845921452	0.7375478548874487	0.0143770517215118	4	Learner_0
8.110995960235595	0.40536475496138374	0.049398374557495114	0.002122298536809871	0.0001	0.3	log	elasticnet	{'alpha': 0.0001, 'l1_ratio': 0.3, 'loss': 'log', 'penalty': 'elasticnet'}	0.31771894093686354	0.3796477495107632	0.3266129032258065	0.37426900584795325	0.3426294820717131	0.34817561631861993	0.024878422060536372	14	Learner_0
4.658899211883545	0.20977314078893072	0.05364832878112793	0.006039697554580329	0.0001	0.6	hinge	elasticnet	{'alpha': 0.0001, 'l1_ratio': 0.6, 'loss': 'hinge', 'penalty': 'elasticnet'}	0.7071651090342679	0.7129909365558913	0.7346326836581709	0.7195121951219512	0.6993865030674847	0.7147374854875532	0.011955423387928793	7	Learner_0
8.17093529701233	0.34619718543197026	0.05297055244445801	0.011897212919972682	0.0001	0.6	log	elasticnet	{'alpha': 0.0001, 'l1_ratio': 0.6, 'loss': 'log', 'penalty': 'elasticnet'}	0.2683438155136268	0.3319838056680162	0.27800829875518673	0.31643002028397565	0.3089430894308943	0.30074180593034	0.023899312959979543	16	Learner_0
4.311520290374756	0.5098821184957678	0.04883718490600586	0.004751370834177173	0.0001	0.8	hinge	elasticnet	{'alpha': 0.0001, 'l1_ratio': 0.8, 'loss': 'hinge', 'penalty': 'elasticnet'}	0.6979655712050078	0.710843373493976	0.7300150829562595	0.723404255319149	0.6953846153846155	0.7115225796718014	0.013622294849618133	8	Learner_0
8.79383602142334	0.47634113869818456	0.04580955505371094	0.002849348454212364	0.0001	0.8	log	elasticnet	{'alpha': 0.0001, 'l1_ratio': 0.8, 'loss': 'log', 'penalty': 'elasticnet'}	0.3142857142857143	0.3650793650793651	0.3095723014256619	0.3393213572854291	0.33266533066132264	0.33218481374749864	0.01982380454174281	15	Learner_0
4.456362867355347	0.19471488795711928	0.055200624465942386	0.006516256995432902	0.0001	0.95	hinge	elasticnet	{'alpha': 0.0001, 'l1_ratio': 0.95, 'loss': 'hinge', 'penalty': 'elasticnet'}	0.716923076923077	0.7240356083086054	0.7395209580838323	0.7440476190476191	0.7112462006079028	0.7271546925942073	0.012694804052217533	6	Learner_0
10.312542343139649	0.15860000940497665	0.06551537513732911	0.016938579804396375	0.0001	0.95	log	elasticnet	{'alpha': 0.0001, 'l1_ratio': 0.95, 'loss': 'log', 'penalty': 'elasticnet'}	0.38039215686274513	0.42666666666666664	0.39147286821705424	0.4301886792452831	0.38996138996138996	0.4037363521906278	0.020545651645396155	12	Learner_0
4.28713755607605	0.1619664733367105	0.048059940338134766	0.0056280219910765745	0.0001	1	hinge	elasticnet	{'alpha': 0.0001, 'l1_ratio': 1, 'loss': 'hinge', 'penalty': 'elasticnet'}	0.7158218125960062	0.7259259259259259	0.7395209580838323	0.7357357357357357	0.7248120300751879	0.7283632924833375	0.00842243859405764	5	Learner_0
10.907300186157226	0.4180351136256549	0.05357613563537598	0.0038842405857082087	0.0001	1	log	elasticnet	{'alpha': 0.0001, 'l1_ratio': 1, 'loss': 'log', 'penalty': 'elasticnet'}	0.4054054054054054	0.46296296296296297	0.43691148775894534	0.45555555555555555	0.446927374301676	0.44155255719690906	0.020057588116097286	11	Learner_0
8.432422113418578	0.4463660218872449	0.05996685028076172	0.00803663773536978	0.0005	0	hinge	elasticnet	{'alpha': 0.0005, 'l1_ratio': 0, 'loss': 'hinge', 'penalty': 'elasticnet'}	0.028708133971291867	0.00966183574879227	0.04728132387706856	0.03333333333333333	0.02392344497607656	0.02858161438131252	0.012263201385794469	17	Learner_0
7.060204029083252	0.039440895530931594	0.06769347190856934	0.011589946796122737	0.0005	0	log	elasticnet	{'alpha': 0.0005, 'l1_ratio': 0, 'loss': 'log', 'penalty': 'elasticnet'}	0.004842615012106537	0.0	0.004830917874396135	0.009638554216867469	0.0	0.003862417420674028	0.0036082980308866468	18	Learner_0
5.380364274978637	0.3549239626921605	0.053741073608398436	0.009854671775891324	0.0005	0.05	hinge	elasticnet	{'alpha': 0.0005, 'l1_ratio': 0.05, 'loss': 'hinge', 'penalty': 'elasticnet'}	0.0	0.0	0.004830917874396135	0.0	0.0	0.000966183574879227	0.001932367149758454	19	Learner_0
8.249831771850586	0.1866261272791275	0.05341639518737793	0.0035840802883446623	0.0005	0.05	log	elasticnet	{'alpha': 0.0005, 'l1_ratio': 0.05, 'loss': 'log', 'penalty': 'elasticnet'}	0.0	0.0	0.004830917874396135	0.0	0.0	0.000966183574879227	0.001932367149758454	19	Learner_0
3.7005576133728026	0.28090825206808534	0.054509735107421874	0.009626686661238523	0.0005	0.25	hinge	elasticnet	{'alpha': 0.0005, 'l1_ratio': 0.25, 'loss': 'hinge', 'penalty': 'elasticnet'}	0.0	0.0	0.0	0.0	0.0	0.0	0.0	21	Learner_0
8.002412748336791	0.11389575051795867	0.06372756958007812	0.008111801863873721	0.0005	0.25	log	elasticnet	{'alpha': 0.0005, 'l1_ratio': 0.25, 'loss': 'log', 'penalty': 'elasticnet'}	0.0	0.0	0.0	0.0	0.0	0.0	0.0	21	Learner_0
3.649558401107788	0.16535738380261894	0.058331775665283206	0.009185656410865538	0.0005	0.3	hinge	elasticnet	{'alpha': 0.0005, 'l1_ratio': 0.3, 'loss': 'hinge', 'penalty': 'elasticnet'}	0.0	0.0	0.0	0.0	0.0	0.0	0.0	21	Learner_0
7.4415487289428714	0.6659664984087694	0.0564213752746582	0.006322061743176384	0.0005	0.3	log	elasticnet	{'alpha': 0.0005, 'l1_ratio': 0.3, 'loss': 'log', 'penalty': 'elasticnet'}	0.0	0.0	0.0	0.0	0.0	0.0	0.0	21	Learner_0
3.7916181087493896	0.23152226571292386	0.05628633499145508	0.00579468091106501	0.0005	0.6	hinge	elasticnet	{'alpha': 0.0005, 'l1_ratio': 0.6, 'loss': 'hinge', 'penalty': 'elasticnet'}	0.0	0.0	0.0	0.0	0.0	0.0	0.0	21	Learner_0
6.544882822036743	0.24153048903577992	0.05032820701599121	0.004131377800674863	0.0005	0.6	log	elasticnet	{'alpha': 0.0005, 'l1_ratio': 0.6, 'loss': 'log', 'penalty': 'elasticnet'}	0.0	0.0	0.0	0.0	0.0	0.0	0.0	21	Learner_0
3.4898573398590087	0.28313842203341755	0.05066251754760742	0.003551272508692529	0.0005	0.8	hinge	elasticnet	{'alpha': 0.0005, 'l1_ratio': 0.8, 'loss': 'hinge', 'penalty': 'elasticnet'}	0.0	0.0	0.0	0.0	0.0	0.0	0.0	21	Learner_0
6.448723602294922	0.1129238365383674	0.045289802551269534	0.0050591130433405955	0.0005	0.8	log	elasticnet	{'alpha': 0.0005, 'l1_ratio': 0.8, 'loss': 'log', 'penalty': 'elasticnet'}	0.0	0.0	0.0	0.0	0.0	0.0	0.0	21	Learner_0
3.320344018936157	0.09142185194974518	0.05699968338012695	0.006822037646469489	0.0005	0.95	hinge	elasticnet	{'alpha': 0.0005, 'l1_ratio': 0.95, 'loss': 'hinge', 'penalty': 'elasticnet'}	0.0	0.0	0.0	0.0	0.0	0.0	0.0	21	Learner_0
6.186847162246704	0.16569118709293837	0.043139076232910155	0.0005752940341066604	0.0005	0.95	log	elasticnet	{'alpha': 0.0005, 'l1_ratio': 0.95, 'loss': 'log', 'penalty': 'elasticnet'}	0.0	0.0	0.0	0.0	0.0	0.0	0.0	21	Learner_0
3.285681962966919	0.18195573944466847	0.04387030601501465	0.0017529729139800507	0.0005	1	hinge	elasticnet	{'alpha': 0.0005, 'l1_ratio': 1, 'loss': 'hinge', 'penalty': 'elasticnet'}	0.0	0.0	0.0	0.0	0.0	0.0	0.0	21	Learner_0
5.931915998458862	0.12056001594578887	0.042381811141967776	0.0009451900309298021	0.0005	1	log	elasticnet	{'alpha': 0.0005, 'l1_ratio': 1, 'loss': 'log', 'penalty': 'elasticnet'}	0.0	0.0	0.0	0.0	0.0	0.0	0.0	21	Learner_0
