Importance	Feature subspace
0.9227902714559582	document_graph
1.1524568343365462	neural_features_dbow
1.0482944112988575	neural_features_dm
0.7475449510259333	topic_features
0.8288132721773476	keyword_features
0.4706219765585527	relational_features_char
0.9437439735056414	relational_features_token
1.119627232905067	char_features
1.1684701852879182	word_features
