document_graph	neural_features_dbow	neural_features_dm	topic_features	word_features	keyword_features	relational_features_char	relational_features_token	char_features
dim_111 : 1.91	16_0 : 2.05	411_1 : 1.92	topic_0 : 0.0	treatment : 0.27	00008 : 0.0	c--5--f : 1.45	may--5--severe : 0.58	on : 0.91
dim_235 : 1.64	191_0 : 1.67	356_1 : 1.9	topic_1 : 0.0	vaccine : 0.2	000257 : 0.0	s--5--p : 1.35	patients--3--risk : 0.56	ccin : 0.76
dim_368 : 1.17	165_0 : 1.56	89_1 : 1.82	topic_2 : 0.0	patient : 0.08	002001003x109lp005 : 0.0	d--3--r : 1.1	patient--5--coronavirus : 0.41	vacc : 0.76
dim_99 : 1.13	154_0 : 1.54	260_1 : 1.58	topic_3 : 0.0	trials : 0.08	011050 : 0.0	 --2--e : 1.08	acute--1--coronavirus : 0.36	 vac : 0.73
dim_130 : 1.13	150_0 : 1.53	344_1 : 1.58	topic_4 : 0.0	vaccines : 0.08	013099 : 0.0	n--4--v : 1.07	clinical--5--severe : 0.34	vac : 0.72
dim_176 : 1.12	73_0 : 1.5	279_1 : 1.54	topic_5 : 0.0	hydroxychloroquine : 0.05	015092 : 0.0	d--2--  : 1.05	data--4--may : 0.34	es : 0.71
dim_159 : 1.08	75_0 : 1.42	313_1 : 1.5	topic_6 : 0.0	patients : 0.02	035090 : 0.0	h--6--y : 1.05	2020--5--coronavirus : 0.31	cine : 0.67
dim_262 : 1.04	121_0 : 1.4	105_1 : 1.49	topic_7 : 0.0	case : 0.01	044591 : 0.0	o--3--t : 1.03	disease--5--associated : 0.31	acci : 0.66
dim_452 : 1.04	338_0 : 1.37	34_1 : 1.47	topic_8 : 0.0	00001 : 0.0	05481396 : 0.0	r--2--l : 1.03	higher--5--2 : 0.31	cci : 0.65
dim_119 : 1.03	477_0 : 1.34	108_1 : 1.43	topic_9 : 0.0	2019ncov : 0.0	05mgl : 0.0	d--5--p : 0.99	pandemic--5--including : 0.27	as : 0.57
dim_348 : 1.03	115_0 : 1.32	255_1 : 1.43	topic_10 : 0.0	30day : 0.0	074111 : 0.0	l--6--w : 0.99	treatment--5--clinical : 0.27	ne  : 0.48
dim_280 : 1.01	421_0 : 1.26	419_1 : 1.43	topic_11 : 0.0	abbott : 0.0	08491135 : 0.0	h--8--k : 0.99	pandemic--5--sarscov2 : 0.27	 s : 0.44
dim_471 : 0.95	111_0 : 1.25	206_1 : 1.41	topic_12 : 0.0	abbreviated : 0.0	0876309729 : 0.0	p--3--n : 0.91	patients--4--levels : 0.27	reat : 0.44
dim_440 : 0.94	259_0 : 1.18	90_1 : 1.33	topic_13 : 0.0	abdominal : 0.0	08960945 : 0.0	h--6--f : 0.89	disease--5--patient : 0.26	se : 0.44
dim_168 : 0.91	473_0 : 1.17	60_1 : 1.09	topic_14 : 0.0	ability : 0.0	09246 : 0.0	n--5--f : 0.89	early--5--disease : 0.26	atme : 0.42
dim_428 : 0.9	377_0 : 1.14	151_1 : 1.08	topic_15 : 0.0	abnormal : 0.0	094099 : 0.0	m--4--t : 0.87	patients--5--lower : 0.26	cin : 0.42
dim_400 : 0.88	397_0 : 1.12	414_1 : 1.08	topic_16 : 0.0	abnormalities : 0.0	0946409778 : 0.0	r--2--a : 0.87	results--4--2020 : 0.25	eatm : 0.42
dim_437 : 0.87	106_0 : 1.11	469_1 : 1.08	topic_17 : 0.0	abroad : 0.0	0961309906 : 0.0	n--4--t : 0.85	risk--3--covid19 : 0.25	 co : 0.41
dim_230 : 0.86	488_0 : 1.1	491_1 : 1.07	topic_18 : 0.0	absence : 0.0	09621 : 0.0	h--5--s : 0.85	risk--4--study : 0.25	ox : 0.41
dim_346 : 0.86	381_0 : 1.07	28_1 : 1.05	topic_19 : 0.0	absolute : 0.0	09760 : 0.0	m--4--a : 0.84	acute--3--patients : 0.24	atm : 0.4
dim_438 : 0.86	187_0 : 1.06	192_1 : 1.05	topic_20 : 0.0	academic : 0.0	1000patient : 0.0	s--5--f : 0.84	associated--5--2 : 0.24	 tre : 0.37
dim_290 : 0.84	408_0 : 1.06	233_1 : 1.01	topic_21 : 0.0	accelerate : 0.0	100150 : 0.0	i--3--y : 0.84	95--5--covid19 : 0.23	trea : 0.37
dim_62 : 0.83	32_0 : 1.05	501_1 : 1.01	x	accelerated : 0.0	100fold : 0.0	a--3--u : 0.83	risk--5--respiratory : 0.22	 w : 0.36
dim_100 : 0.83	270_0 : 1.05	42_1 : 1.0	x	accepted : 0.0	1016399 : 0.0	 --2--t : 0.82	results--5--outcomes : 0.22	chlo : 0.36
dim_488 : 0.8	311_0 : 1.03	137_1 : 0.98	x	access : 0.0	103304 : 0.0	a--5--g : 0.81	median--5--patients : 0.22	eat : 0.36
