Importance	Feature subspace
1.0	document_graph
1.0	neural_features_dbow
1.0	neural_features_dm
1.0	topic_features
1.0	keyword_features
1.0	relational_features_char
1.0	relational_features_token
1.0	char_features
1.0	word_features
