document_graph	neural_features_dbow	neural_features_dm	topic_features	word_features	keyword_features	relational_features_char	relational_features_token	char_features
dim_491 : 0.02	0_0 : 0.0	0_1 : 0.0	topic_0 : 0.0	00001 : 0.0	00008 : 0.0	 --2--i : 0.0	6--5--2 : 0.0	 0 : 0.0
dim_26 : 0.01	1_0 : 0.0	1_1 : 0.0	topic_1 : 0.0	2019ncov : 0.0	000257 : 0.0	 --2--e : 0.0	3--5--2 : 0.0	 00 : 0.0
dim_27 : 0.01	2_0 : 0.0	2_1 : 0.0	topic_2 : 0.0	30day : 0.0	002001003x109lp005 : 0.0	 --2--t : 0.0	1--5--3 : 0.0	 000 : 0.0
dim_32 : 0.01	3_0 : 0.0	3_1 : 0.0	topic_3 : 0.0	abbott : 0.0	011050 : 0.0	 --2--a : 0.0	1--4--2 : 0.0	 1 : 0.0
dim_35 : 0.01	4_0 : 0.0	4_1 : 0.0	topic_4 : 0.0	abbreviated : 0.0	013099 : 0.0	o--3--a : 0.0	1--3--2 : 0.0	 1  : 0.0
dim_44 : 0.01	5_0 : 0.0	5_1 : 0.0	topic_5 : 0.0	abdominal : 0.0	015092 : 0.0	r--3--i : 0.0	3--3--2 : 0.0	 10 : 0.0
dim_46 : 0.01	6_0 : 0.0	6_1 : 0.0	topic_6 : 0.0	ability : 0.0	035090 : 0.0	 --2--c : 0.0	1--2--2 : 0.0	 10  : 0.0
dim_47 : 0.01	7_0 : 0.0	7_1 : 0.0	topic_7 : 0.0	abnormal : 0.0	044591 : 0.0	e--3--o : 0.0	1--4--3 : 0.0	 100 : 0.0
dim_61 : 0.01	8_0 : 0.0	8_1 : 0.0	topic_8 : 0.0	abnormalities : 0.0	05481396 : 0.0	e--3--i : 0.0	severe--1--syndrome : 0.0	 11 : 0.0
dim_62 : 0.01	9_0 : 0.0	9_1 : 0.0	topic_9 : 0.0	abroad : 0.0	05mgl : 0.0	c--3--i : 0.0	results--5--methods : 0.0	 12 : 0.0
dim_64 : 0.01	10_0 : 0.0	10_1 : 0.0	topic_10 : 0.0	absence : 0.0	074111 : 0.0	i--3--a : 0.0	acute--2--2 : 0.0	 13 : 0.0
dim_68 : 0.01	11_0 : 0.0	11_1 : 0.0	topic_11 : 0.0	absolute : 0.0	08491135 : 0.0	c--3--a : 0.0	covid19--5--disease : 0.0	 14 : 0.0
dim_71 : 0.01	12_0 : 0.0	12_1 : 0.0	topic_12 : 0.0	academic : 0.0	0876309729 : 0.0	c--3--n : 0.0	severe--2--2 : 0.0	 15 : 0.0
dim_72 : 0.01	13_0 : 0.0	13_1 : 0.0	topic_13 : 0.0	accelerate : 0.0	08960945 : 0.0	r--3--n : 0.0	coronavirus--2--severe : 0.0	 16 : 0.0
dim_73 : 0.01	14_0 : 0.0	14_1 : 0.0	topic_14 : 0.0	accelerated : 0.0	09246 : 0.0	1--1--v : 0.0	covid19--5--coronavirus : 0.0	 17 : 0.0
dim_75 : 0.01	15_0 : 0.0	15_1 : 0.0	topic_15 : 0.0	accepted : 0.0	094099 : 0.0	s--3--n : 0.0	covid19--4--disease : 0.0	 18 : 0.0
dim_81 : 0.01	16_0 : 0.0	16_1 : 0.0	topic_16 : 0.0	access : 0.0	0946409778 : 0.0	l--4--n : 0.0	respiratory--1--2 : 0.0	 19 : 0.0
dim_84 : 0.01	17_0 : 0.0	17_1 : 0.0	topic_17 : 0.0	accessible : 0.0	0961309906 : 0.0	c--3--t : 0.0	covid19--5--sarscov2 : 0.0	 2 : 0.0
dim_89 : 0.01	18_0 : 0.0	18_1 : 0.0	topic_18 : 0.0	accessing : 0.0	09621 : 0.0	s--4--l : 0.0	results--5--disease : 0.0	 2  : 0.0
dim_90 : 0.01	19_0 : 0.0	19_1 : 0.0	topic_19 : 0.0	accompanied : 0.0	09760 : 0.0	e--3--c : 0.0	results--5--covid19 : 0.0	 2 s : 0.0
dim_91 : 0.01	20_0 : 0.0	20_1 : 0.0	topic_20 : 0.0	accompanying : 0.0	1000patient : 0.0	n--3--a : 0.0	results--4--methods : 0.0	 20 : 0.0
dim_94 : 0.01	21_0 : 0.0	21_1 : 0.0	topic_21 : 0.0	according : 0.0	100150 : 0.0	 --2--r : 0.0	covid19--5--respiratory : 0.0	 201 : 0.0
dim_95 : 0.01	22_0 : 0.0	22_1 : 0.0	x	accordingly : 0.0	100fold : 0.0	 --2--o : 0.0	results--5--study : 0.0	 202 : 0.0
dim_97 : 0.01	23_0 : 0.0	23_1 : 0.0	x	account : 0.0	1016399 : 0.0	e--3--t : 0.0	patients--5--covid19 : 0.0	 23 : 0.0
dim_98 : 0.01	24_0 : 0.0	24_1 : 0.0	x	accounting : 0.0	103304 : 0.0	s--4--n : 0.0	results--5--coronavirus : 0.0	 24 : 0.0
