mean_fit_time	std_fit_time	mean_score_time	std_score_time	param_alpha	param_l1_ratio	param_loss	param_penalty	params	split0_test_score	split1_test_score	split2_test_score	split3_test_score	split4_test_score	mean_test_score	std_test_score	rank_test_score	learner ID
0.2422182559967041	0.05495405275632373	0.004324960708618164	0.0008550224431120926	0.01	0	hinge	elasticnet	{'alpha': 0.01, 'l1_ratio': 0, 'loss': 'hinge', 'penalty': 'elasticnet'}	0.0	0.0	0.0	0.0	0.0	0.0	0.0	17	Learner_0
0.7916423797607421	0.1534643899751621	0.006027364730834961	0.001146730171413426	0.01	0	log	elasticnet	{'alpha': 0.01, 'l1_ratio': 0, 'loss': 'log', 'penalty': 'elasticnet'}	0.0	0.0	0.0	0.0	0.0	0.0	0.0	17	Learner_0
0.2532358646392822	0.04968779069681675	0.005382394790649414	0.0005419597308593908	0.01	0.05	hinge	elasticnet	{'alpha': 0.01, 'l1_ratio': 0.05, 'loss': 'hinge', 'penalty': 'elasticnet'}	0.0	0.0	0.0	0.0	0.0	0.0	0.0	17	Learner_0
1.464326524734497	0.32275606899979037	0.00670781135559082	0.0010593877053516497	0.01	0.05	log	elasticnet	{'alpha': 0.01, 'l1_ratio': 0.05, 'loss': 'log', 'penalty': 'elasticnet'}	0.0	0.0	0.0	0.0	0.0	0.0	0.0	17	Learner_0
0.27176876068115235	0.04889814286960266	0.006796360015869141	0.000605942420593372	0.01	0.25	hinge	elasticnet	{'alpha': 0.01, 'l1_ratio': 0.25, 'loss': 'hinge', 'penalty': 'elasticnet'}	0.0	0.0	0.0	0.0	0.0	0.0	0.0	17	Learner_0
1.7529501438140869	0.30719717767934224	0.00716090202331543	0.0007428725804939956	0.01	0.25	log	elasticnet	{'alpha': 0.01, 'l1_ratio': 0.25, 'loss': 'log', 'penalty': 'elasticnet'}	0.0	0.0	0.0	0.0	0.0	0.0	0.0	17	Learner_0
0.28170108795166016	0.04772702194455592	0.006673574447631836	0.0008153113665957167	0.01	0.3	hinge	elasticnet	{'alpha': 0.01, 'l1_ratio': 0.3, 'loss': 'hinge', 'penalty': 'elasticnet'}	0.0	0.0	0.0	0.0	0.0	0.0	0.0	17	Learner_0
1.8683658599853517	0.3380637234405862	0.006586599349975586	0.0006874236261055258	0.01	0.3	log	elasticnet	{'alpha': 0.01, 'l1_ratio': 0.3, 'loss': 'log', 'penalty': 'elasticnet'}	0.0	0.0	0.0	0.0	0.0	0.0	0.0	17	Learner_0
0.2772203922271729	0.050559820395146754	0.006723642349243164	0.0008536223018799832	0.01	0.6	hinge	elasticnet	{'alpha': 0.01, 'l1_ratio': 0.6, 'loss': 'hinge', 'penalty': 'elasticnet'}	0.0	0.0	0.0	0.0	0.0	0.0	0.0	17	Learner_0
1.9901894569396972	0.3589723344074346	0.006576728820800781	0.0008033112217859515	0.01	0.6	log	elasticnet	{'alpha': 0.01, 'l1_ratio': 0.6, 'loss': 'log', 'penalty': 'elasticnet'}	0.0	0.0	0.0	0.0	0.0	0.0	0.0	17	Learner_0
0.27237815856933595	0.05245047710513118	0.007331657409667969	0.00036699747641176305	0.01	0.8	hinge	elasticnet	{'alpha': 0.01, 'l1_ratio': 0.8, 'loss': 'hinge', 'penalty': 'elasticnet'}	0.0	0.0	0.0	0.0	0.0	0.0	0.0	17	Learner_0
1.8737025737762452	0.29610346008807653	0.006628179550170898	0.0009496410627823557	0.01	0.8	log	elasticnet	{'alpha': 0.01, 'l1_ratio': 0.8, 'loss': 'log', 'penalty': 'elasticnet'}	0.0	0.0	0.0	0.0	0.0	0.0	0.0	17	Learner_0
0.3035432815551758	0.05022845955065415	0.007607316970825196	0.0010835979017954505	0.01	0.95	hinge	elasticnet	{'alpha': 0.01, 'l1_ratio': 0.95, 'loss': 'hinge', 'penalty': 'elasticnet'}	0.0	0.0	0.0	0.0	0.0	0.0	0.0	17	Learner_0
1.927712631225586	0.35085158848022385	0.006505298614501953	0.0009539587717214621	0.01	0.95	log	elasticnet	{'alpha': 0.01, 'l1_ratio': 0.95, 'loss': 'log', 'penalty': 'elasticnet'}	0.0	0.0	0.0	0.0	0.0	0.0	0.0	17	Learner_0
0.2492300510406494	0.05290960141495541	0.006413650512695312	0.0008747651603325966	0.01	1	hinge	elasticnet	{'alpha': 0.01, 'l1_ratio': 1, 'loss': 'hinge', 'penalty': 'elasticnet'}	0.0	0.0	0.0	0.0	0.0	0.0	0.0	17	Learner_0
1.9082665920257569	0.33736098601569325	0.0066912174224853516	0.0009848938816167624	0.01	1	log	elasticnet	{'alpha': 0.01, 'l1_ratio': 1, 'loss': 'log', 'penalty': 'elasticnet'}	0.0	0.0	0.0	0.0	0.0	0.0	0.0	17	Learner_0
0.47720885276794434	0.06954686470718305	0.0066164970397949215	0.0010661539587021223	0.001	0	hinge	elasticnet	{'alpha': 0.001, 'l1_ratio': 0, 'loss': 'hinge', 'penalty': 'elasticnet'}	0.0	0.0	0.0	0.0	0.0	0.0	0.0	17	Learner_0
0.6184225082397461	0.1693537605235528	0.006609535217285157	0.0010962832077465873	0.001	0	log	elasticnet	{'alpha': 0.001, 'l1_ratio': 0, 'loss': 'log', 'penalty': 'elasticnet'}	0.0	0.0	0.0	0.0	0.0	0.0	0.0	17	Learner_0
0.3745275974273682	0.0827966365249522	0.006917762756347656	0.0009553697702330638	0.001	0.05	hinge	elasticnet	{'alpha': 0.001, 'l1_ratio': 0.05, 'loss': 'hinge', 'penalty': 'elasticnet'}	0.0	0.0	0.0	0.0	0.0	0.0	0.0	17	Learner_0
0.7868375301361084	0.2098799026554566	0.006856060028076172	0.0012542622639335542	0.001	0.05	log	elasticnet	{'alpha': 0.001, 'l1_ratio': 0.05, 'loss': 'log', 'penalty': 'elasticnet'}	0.0	0.0	0.0	0.0	0.0	0.0	0.0	17	Learner_0
0.26020078659057616	0.05734885473803307	0.006343984603881836	0.0008789210242736668	0.001	0.25	hinge	elasticnet	{'alpha': 0.001, 'l1_ratio': 0.25, 'loss': 'hinge', 'penalty': 'elasticnet'}	0.0	0.0	0.0	0.0	0.0	0.0	0.0	17	Learner_0
0.7391637802124024	0.14071018842089492	0.006655979156494141	0.0010926572811961566	0.001	0.25	log	elasticnet	{'alpha': 0.001, 'l1_ratio': 0.25, 'loss': 'log', 'penalty': 'elasticnet'}	0.0	0.0	0.0	0.0	0.0	0.0	0.0	17	Learner_0
0.28196115493774415	0.062171536595602615	0.006907510757446289	0.0009675503399847837	0.001	0.3	hinge	elasticnet	{'alpha': 0.001, 'l1_ratio': 0.3, 'loss': 'hinge', 'penalty': 'elasticnet'}	0.0	0.0	0.0	0.0	0.0	0.0	0.0	17	Learner_0
0.7732069969177247	0.1484625033828358	0.0066835880279541016	0.0010968081608982339	0.001	0.3	log	elasticnet	{'alpha': 0.001, 'l1_ratio': 0.3, 'loss': 'log', 'penalty': 'elasticnet'}	0.0	0.0	0.0	0.0	0.0	0.0	0.0	17	Learner_0
0.2522576808929443	0.05448356526999087	0.00620417594909668	0.0008912314748315613	0.001	0.6	hinge	elasticnet	{'alpha': 0.001, 'l1_ratio': 0.6, 'loss': 'hinge', 'penalty': 'elasticnet'}	0.0	0.0	0.0	0.0	0.0	0.0	0.0	17	Learner_0
0.8738897800445556	0.19900892054458233	0.0069274425506591795	0.0013305924129651317	0.001	0.6	log	elasticnet	{'alpha': 0.001, 'l1_ratio': 0.6, 'loss': 'log', 'penalty': 'elasticnet'}	0.0	0.0	0.0	0.0	0.0	0.0	0.0	17	Learner_0
0.24975061416625977	0.05404662501270931	0.00633087158203125	0.0009467332325071566	0.001	0.8	hinge	elasticnet	{'alpha': 0.001, 'l1_ratio': 0.8, 'loss': 'hinge', 'penalty': 'elasticnet'}	0.0	0.0	0.0	0.0	0.0	0.0	0.0	17	Learner_0
0.809819507598877	0.16330284306156867	0.006885910034179687	0.0010633584372570484	0.001	0.8	log	elasticnet	{'alpha': 0.001, 'l1_ratio': 0.8, 'loss': 'log', 'penalty': 'elasticnet'}	0.0	0.0	0.0	0.0	0.0	0.0	0.0	17	Learner_0
0.25104031562805174	0.05020395179803908	0.0065823554992675785	0.001046578914841786	0.001	0.95	hinge	elasticnet	{'alpha': 0.001, 'l1_ratio': 0.95, 'loss': 'hinge', 'penalty': 'elasticnet'}	0.0	0.0	0.0	0.0	0.0	0.0	0.0	17	Learner_0
0.8410147190093994	0.1534170503584262	0.0076825618743896484	0.0009261038555544825	0.001	0.95	log	elasticnet	{'alpha': 0.001, 'l1_ratio': 0.95, 'loss': 'log', 'penalty': 'elasticnet'}	0.0	0.0	0.0	0.0	0.0	0.0	0.0	17	Learner_0
0.2076024055480957	0.006332329243054104	0.0054775714874267575	0.0002592235908962928	0.001	1	hinge	elasticnet	{'alpha': 0.001, 'l1_ratio': 1, 'loss': 'hinge', 'penalty': 'elasticnet'}	0.0	0.0	0.0	0.0	0.0	0.0	0.0	17	Learner_0
0.7309411525726318	0.1387140365692958	0.006449222564697266	0.0008676172710585575	0.001	1	log	elasticnet	{'alpha': 0.001, 'l1_ratio': 1, 'loss': 'log', 'penalty': 'elasticnet'}	0.0	0.0	0.0	0.0	0.0	0.0	0.0	17	Learner_0
0.9758650302886963	0.24292928922745607	0.006627368927001953	0.0011312274580376372	0.0001	0	hinge	elasticnet	{'alpha': 0.0001, 'l1_ratio': 0, 'loss': 'hinge', 'penalty': 'elasticnet'}	0.6666666666666666	0.25	0.5	0.8	0.6666666666666666	0.5766666666666667	0.18903262505010432	2	Learner_0
0.794576358795166	0.2047023546912738	0.006402063369750977	0.0009430748613238396	0.0001	0	log	elasticnet	{'alpha': 0.0001, 'l1_ratio': 0, 'loss': 'log', 'penalty': 'elasticnet'}	0.0	0.0	0.0	0.2857142857142857	0.0	0.05714285714285714	0.11428571428571428	16	Learner_0
1.175927495956421	0.32755525321825985	0.006537342071533203	0.0010599215960963066	0.0001	0.05	hinge	elasticnet	{'alpha': 0.0001, 'l1_ratio': 0.05, 'loss': 'hinge', 'penalty': 'elasticnet'}	0.6666666666666666	0.25	0.5	0.8	0.6666666666666666	0.5766666666666667	0.18903262505010432	2	Learner_0
0.7603981494903564	0.14605706717180963	0.006307792663574219	0.0008962119237633466	0.0001	0.05	log	elasticnet	{'alpha': 0.0001, 'l1_ratio': 0.05, 'loss': 'log', 'penalty': 'elasticnet'}	0.0	0.0	0.0	0.5	0.2857142857142857	0.15714285714285714	0.20404081224408144	12	Learner_0
0.6751267433166503	0.11312025040161815	0.006516742706298828	0.0009567005470245444	0.0001	0.25	hinge	elasticnet	{'alpha': 0.0001, 'l1_ratio': 0.25, 'loss': 'hinge', 'penalty': 'elasticnet'}	0.5	0.25	0.2857142857142857	0.8	0.8	0.5271428571428571	0.23863557734652688	7	Learner_0
0.8820518493652344	0.2565631956592341	0.0066699028015136715	0.0010718002847586083	0.0001	0.25	log	elasticnet	{'alpha': 0.0001, 'l1_ratio': 0.25, 'loss': 'log', 'penalty': 'elasticnet'}	0.0	0.0	0.0	0.5	0.0	0.1	0.2	15	Learner_0
0.6433900833129883	0.17163277833076349	0.0071581840515136715	0.0011536723750584616	0.0001	0.3	hinge	elasticnet	{'alpha': 0.0001, 'l1_ratio': 0.3, 'loss': 'hinge', 'penalty': 'elasticnet'}	0.5	0.25	0.2857142857142857	0.6666666666666666	0.8	0.5004761904761905	0.2126946220936808	8	Learner_0
0.9206376075744629	0.1904554404417757	0.0074613094329833984	0.0022361327569966555	0.0001	0.3	log	elasticnet	{'alpha': 0.0001, 'l1_ratio': 0.3, 'loss': 'log', 'penalty': 'elasticnet'}	0.0	0.0	0.0	0.5	0.2857142857142857	0.15714285714285714	0.20404081224408144	12	Learner_0
0.49190216064453124	0.12884329254162205	0.0064814090728759766	0.0011063909763995503	0.0001	0.6	hinge	elasticnet	{'alpha': 0.0001, 'l1_ratio': 0.6, 'loss': 'hinge', 'penalty': 'elasticnet'}	0.5	0.25	0.5	0.8	0.8	0.57	0.208806130178211	4	Learner_0
0.8585207462310791	0.19994074065810635	0.0067840576171875	0.0011765743348368712	0.0001	0.6	log	elasticnet	{'alpha': 0.0001, 'l1_ratio': 0.6, 'loss': 'log', 'penalty': 'elasticnet'}	0.0	0.0	0.0	0.5	0.2857142857142857	0.15714285714285714	0.20404081224408144	12	Learner_0
0.548296308517456	0.1572385518476607	0.00657811164855957	0.0007050433436400084	0.0001	0.8	hinge	elasticnet	{'alpha': 0.0001, 'l1_ratio': 0.8, 'loss': 'hinge', 'penalty': 'elasticnet'}	0.5	0.25	0.5	0.8	0.8	0.57	0.208806130178211	4	Learner_0
0.9085707187652587	0.18529444173412501	0.006928873062133789	0.0013212094613508274	0.0001	0.8	log	elasticnet	{'alpha': 0.0001, 'l1_ratio': 0.8, 'loss': 'log', 'penalty': 'elasticnet'}	0.0	0.0	0.2857142857142857	0.5	0.6666666666666666	0.29047619047619044	0.266155973571088	11	Learner_0
0.5050485610961915	0.09356603328408056	0.006363391876220703	0.0010141189795777328	0.0001	0.95	hinge	elasticnet	{'alpha': 0.0001, 'l1_ratio': 0.95, 'loss': 'hinge', 'penalty': 'elasticnet'}	0.6666666666666666	0.4444444444444444	0.5	0.8	0.8	0.6422222222222222	0.1481407405555463	1	Learner_0
0.9573798179626465	0.13397900139291816	0.006749439239501953	0.0009375722685254184	0.0001	0.95	log	elasticnet	{'alpha': 0.0001, 'l1_ratio': 0.95, 'loss': 'log', 'penalty': 'elasticnet'}	0.0	0.0	0.2857142857142857	0.6666666666666666	0.6666666666666666	0.3238095238095238	0.2987502312639642	10	Learner_0
0.5471445083618164	0.1254134855304976	0.007053375244140625	0.0013469705379772381	0.0001	1	hinge	elasticnet	{'alpha': 0.0001, 'l1_ratio': 1, 'loss': 'hinge', 'penalty': 'elasticnet'}	0.5	0.25	0.5	0.8	0.8	0.57	0.208806130178211	4	Learner_0
0.9993945121765136	0.1820409086693691	0.006423139572143554	0.0009031860284574641	0.0001	1	log	elasticnet	{'alpha': 0.0001, 'l1_ratio': 1, 'loss': 'log', 'penalty': 'elasticnet'}	0.2857142857142857	0.0	0.2857142857142857	0.6666666666666666	0.6666666666666666	0.38095238095238093	0.2555506259999759	9	Learner_0
0.6849342823028565	0.14855782964576328	0.006876230239868164	0.0007829215568792548	0.0005	0	hinge	elasticnet	{'alpha': 0.0005, 'l1_ratio': 0, 'loss': 'hinge', 'penalty': 'elasticnet'}	0.0	0.0	0.0	0.0	0.0	0.0	0.0	17	Learner_0
0.7115961074829101	0.187145687250078	0.006794166564941406	0.0012735284158296417	0.0005	0	log	elasticnet	{'alpha': 0.0005, 'l1_ratio': 0, 'loss': 'log', 'penalty': 'elasticnet'}	0.0	0.0	0.0	0.0	0.0	0.0	0.0	17	Learner_0
0.4643514633178711	0.12769923028996286	0.006365394592285157	0.0007404827796735912	0.0005	0.05	hinge	elasticnet	{'alpha': 0.0005, 'l1_ratio': 0.05, 'loss': 'hinge', 'penalty': 'elasticnet'}	0.0	0.0	0.0	0.0	0.0	0.0	0.0	17	Learner_0
0.7088425159454346	0.14105653303617988	0.007349443435668945	0.001812504651354165	0.0005	0.05	log	elasticnet	{'alpha': 0.0005, 'l1_ratio': 0.05, 'loss': 'log', 'penalty': 'elasticnet'}	0.0	0.0	0.0	0.0	0.0	0.0	0.0	17	Learner_0
0.28575963973999025	0.07927035152558537	0.006836032867431641	0.0010231093516452057	0.0005	0.25	hinge	elasticnet	{'alpha': 0.0005, 'l1_ratio': 0.25, 'loss': 'hinge', 'penalty': 'elasticnet'}	0.0	0.0	0.0	0.0	0.0	0.0	0.0	17	Learner_0
0.8085058689117431	0.15445971771853498	0.007098054885864258	0.001519702672415544	0.0005	0.25	log	elasticnet	{'alpha': 0.0005, 'l1_ratio': 0.25, 'loss': 'log', 'penalty': 'elasticnet'}	0.0	0.0	0.0	0.0	0.0	0.0	0.0	17	Learner_0
0.2829170227050781	0.06220725970786934	0.006825685501098633	0.0012104602223179063	0.0005	0.3	hinge	elasticnet	{'alpha': 0.0005, 'l1_ratio': 0.3, 'loss': 'hinge', 'penalty': 'elasticnet'}	0.0	0.0	0.0	0.0	0.0	0.0	0.0	17	Learner_0
0.7806422710418701	0.14658339084292824	0.007070684432983398	0.0013439669946578303	0.0005	0.3	log	elasticnet	{'alpha': 0.0005, 'l1_ratio': 0.3, 'loss': 'log', 'penalty': 'elasticnet'}	0.0	0.0	0.0	0.0	0.0	0.0	0.0	17	Learner_0
0.25104513168334963	0.05282238328896539	0.006588649749755859	0.0010660130855123088	0.0005	0.6	hinge	elasticnet	{'alpha': 0.0005, 'l1_ratio': 0.6, 'loss': 'hinge', 'penalty': 'elasticnet'}	0.0	0.0	0.0	0.0	0.0	0.0	0.0	17	Learner_0
0.7271929740905761	0.14700644717832748	0.006807470321655273	0.0010371875259168747	0.0005	0.6	log	elasticnet	{'alpha': 0.0005, 'l1_ratio': 0.6, 'loss': 'log', 'penalty': 'elasticnet'}	0.0	0.0	0.0	0.0	0.0	0.0	0.0	17	Learner_0
0.2530063629150391	0.0591893387613692	0.006325244903564453	0.0007994219682854498	0.0005	0.8	hinge	elasticnet	{'alpha': 0.0005, 'l1_ratio': 0.8, 'loss': 'hinge', 'penalty': 'elasticnet'}	0.0	0.0	0.0	0.0	0.0	0.0	0.0	17	Learner_0
0.7124778747558593	0.14986737440056963	0.006802082061767578	0.001300483183877823	0.0005	0.8	log	elasticnet	{'alpha': 0.0005, 'l1_ratio': 0.8, 'loss': 'log', 'penalty': 'elasticnet'}	0.0	0.0	0.0	0.0	0.0	0.0	0.0	17	Learner_0
0.27330570220947265	0.061996920301024896	0.006749105453491211	0.0011056763787324394	0.0005	0.95	hinge	elasticnet	{'alpha': 0.0005, 'l1_ratio': 0.95, 'loss': 'hinge', 'penalty': 'elasticnet'}	0.0	0.0	0.0	0.0	0.0	0.0	0.0	17	Learner_0
0.7274962425231933	0.15054973222456944	0.007331228256225586	0.0008961284660705728	0.0005	0.95	log	elasticnet	{'alpha': 0.0005, 'l1_ratio': 0.95, 'loss': 'log', 'penalty': 'elasticnet'}	0.0	0.0	0.0	0.0	0.0	0.0	0.0	17	Learner_0
0.2566856861114502	0.05682293059235557	0.00637965202331543	0.0008771617036417007	0.0005	1	hinge	elasticnet	{'alpha': 0.0005, 'l1_ratio': 1, 'loss': 'hinge', 'penalty': 'elasticnet'}	0.0	0.0	0.0	0.0	0.0	0.0	0.0	17	Learner_0
0.6437236785888671	0.07688210681191208	0.005003547668457032	0.0004381807780069732	0.0005	1	log	elasticnet	{'alpha': 0.0005, 'l1_ratio': 1, 'loss': 'log', 'penalty': 'elasticnet'}	0.0	0.0	0.0	0.0	0.0	0.0	0.0	17	Learner_0
0.23703880310058595	0.05846501436533663	0.004326868057250977	0.000815649164782703	0.01	0	hinge	elasticnet	{'alpha': 0.01, 'l1_ratio': 0, 'loss': 'hinge', 'penalty': 'elasticnet'}	0.0	0.0	0.0	0.0	0.0	0.0	0.0	17	Learner_1
0.8004820823669434	0.2629334426136751	0.006138324737548828	0.0013501125481000444	0.01	0	log	elasticnet	{'alpha': 0.01, 'l1_ratio': 0, 'loss': 'log', 'penalty': 'elasticnet'}	0.0	0.0	0.0	0.0	0.0	0.0	0.0	17	Learner_1
0.2567777156829834	0.03950884588835217	0.005701589584350586	0.0005690429763010809	0.01	0.05	hinge	elasticnet	{'alpha': 0.01, 'l1_ratio': 0.05, 'loss': 'hinge', 'penalty': 'elasticnet'}	0.0	0.0	0.0	0.0	0.0	0.0	0.0	17	Learner_1
1.6114651679992675	0.2659450291029182	0.007252979278564453	0.0011462613594724511	0.01	0.05	log	elasticnet	{'alpha': 0.01, 'l1_ratio': 0.05, 'loss': 'log', 'penalty': 'elasticnet'}	0.0	0.0	0.0	0.0	0.0	0.0	0.0	17	Learner_1
0.2750041961669922	0.060191305106844215	0.006627845764160156	0.001067816716014908	0.01	0.25	hinge	elasticnet	{'alpha': 0.01, 'l1_ratio': 0.25, 'loss': 'hinge', 'penalty': 'elasticnet'}	0.0	0.0	0.0	0.0	0.0	0.0	0.0	17	Learner_1
1.686613416671753	0.25206316167898485	0.00633082389831543	0.001026067716878946	0.01	0.25	log	elasticnet	{'alpha': 0.01, 'l1_ratio': 0.25, 'loss': 'log', 'penalty': 'elasticnet'}	0.0	0.0	0.0	0.0	0.0	0.0	0.0	17	Learner_1
0.320363712310791	0.019836907401221526	0.0073512554168701175	0.00024346810338465156	0.01	0.3	hinge	elasticnet	{'alpha': 0.01, 'l1_ratio': 0.3, 'loss': 'hinge', 'penalty': 'elasticnet'}	0.0	0.0	0.0	0.0	0.0	0.0	0.0	17	Learner_1
1.924447727203369	0.3534322113512137	0.006762886047363281	0.0010272106213372481	0.01	0.3	log	elasticnet	{'alpha': 0.01, 'l1_ratio': 0.3, 'loss': 'log', 'penalty': 'elasticnet'}	0.0	0.0	0.0	0.0	0.0	0.0	0.0	17	Learner_1
0.26053662300109864	0.06138537121404679	0.006440210342407227	0.0007883957915282835	0.01	0.6	hinge	elasticnet	{'alpha': 0.01, 'l1_ratio': 0.6, 'loss': 'hinge', 'penalty': 'elasticnet'}	0.0	0.0	0.0	0.0	0.0	0.0	0.0	17	Learner_1
2.1013931751251222	0.31823934618159666	0.006919336318969726	0.0005563667100448188	0.01	0.6	log	elasticnet	{'alpha': 0.01, 'l1_ratio': 0.6, 'loss': 'log', 'penalty': 'elasticnet'}	0.0	0.0	0.0	0.0	0.0	0.0	0.0	17	Learner_1
0.2590321063995361	0.0498915528962415	0.006846714019775391	0.0009299517261601442	0.01	0.8	hinge	elasticnet	{'alpha': 0.01, 'l1_ratio': 0.8, 'loss': 'hinge', 'penalty': 'elasticnet'}	0.0	0.0	0.0	0.0	0.0	0.0	0.0	17	Learner_1
1.7715238571166991	0.35465158826650894	0.0066646099090576175	0.0015035862623250312	0.01	0.8	log	elasticnet	{'alpha': 0.01, 'l1_ratio': 0.8, 'loss': 'log', 'penalty': 'elasticnet'}	0.0	0.0	0.0	0.0	0.0	0.0	0.0	17	Learner_1
0.23087854385375978	0.05703730117624896	0.0058955192565917965	0.0008932969581588132	0.01	0.95	hinge	elasticnet	{'alpha': 0.01, 'l1_ratio': 0.95, 'loss': 'hinge', 'penalty': 'elasticnet'}	0.0	0.0	0.0	0.0	0.0	0.0	0.0	17	Learner_1
1.8973682880401612	0.3320194662231742	0.006558895111083984	0.0009434975395745234	0.01	0.95	log	elasticnet	{'alpha': 0.01, 'l1_ratio': 0.95, 'loss': 'log', 'penalty': 'elasticnet'}	0.0	0.0	0.0	0.0	0.0	0.0	0.0	17	Learner_1
0.25079898834228515	0.05553426688447602	0.006302928924560547	0.0008417707876540684	0.01	1	hinge	elasticnet	{'alpha': 0.01, 'l1_ratio': 1, 'loss': 'hinge', 'penalty': 'elasticnet'}	0.0	0.0	0.0	0.0	0.0	0.0	0.0	17	Learner_1
1.903325080871582	0.347402059457715	0.006759786605834961	0.001052665980446669	0.01	1	log	elasticnet	{'alpha': 0.01, 'l1_ratio': 1, 'loss': 'log', 'penalty': 'elasticnet'}	0.0	0.0	0.0	0.0	0.0	0.0	0.0	17	Learner_1
0.47107501029968263	0.11809131736091133	0.006215333938598633	0.0008682063413699156	0.001	0	hinge	elasticnet	{'alpha': 0.001, 'l1_ratio': 0, 'loss': 'hinge', 'penalty': 'elasticnet'}	0.0	0.0	0.0	0.0	0.0	0.0	0.0	17	Learner_1
0.6946789741516113	0.1295081096978606	0.006667566299438476	0.0009150319497600836	0.001	0	log	elasticnet	{'alpha': 0.001, 'l1_ratio': 0, 'loss': 'log', 'penalty': 'elasticnet'}	0.0	0.0	0.0	0.0	0.0	0.0	0.0	17	Learner_1
0.33164496421813966	0.07625194075003315	0.006608915328979492	0.0011205353569990837	0.001	0.05	hinge	elasticnet	{'alpha': 0.001, 'l1_ratio': 0.05, 'loss': 'hinge', 'penalty': 'elasticnet'}	0.0	0.0	0.0	0.0	0.0	0.0	0.0	17	Learner_1
0.8609099864959717	0.19026794745117093	0.006649971008300781	0.0010747124766831062	0.001	0.05	log	elasticnet	{'alpha': 0.001, 'l1_ratio': 0.05, 'loss': 'log', 'penalty': 'elasticnet'}	0.0	0.0	0.0	0.0	0.0	0.0	0.0	17	Learner_1
0.28477654457092283	0.06107039745066377	0.006667995452880859	0.0010277650656038576	0.001	0.25	hinge	elasticnet	{'alpha': 0.001, 'l1_ratio': 0.25, 'loss': 'hinge', 'penalty': 'elasticnet'}	0.0	0.0	0.0	0.0	0.0	0.0	0.0	17	Learner_1
0.8155232429504394	0.15415501285199207	0.006793689727783203	0.0012279163030826004	0.001	0.25	log	elasticnet	{'alpha': 0.001, 'l1_ratio': 0.25, 'loss': 'log', 'penalty': 'elasticnet'}	0.0	0.0	0.0	0.0	0.0	0.0	0.0	17	Learner_1
0.27834572792053225	0.061035322991270055	0.006948995590209961	0.0008705905706914533	0.001	0.3	hinge	elasticnet	{'alpha': 0.001, 'l1_ratio': 0.3, 'loss': 'hinge', 'penalty': 'elasticnet'}	0.0	0.0	0.0	0.0	0.0	0.0	0.0	17	Learner_1
0.8311322212219239	0.15869796751325185	0.007279205322265625	0.0014113090946007982	0.001	0.3	log	elasticnet	{'alpha': 0.001, 'l1_ratio': 0.3, 'loss': 'log', 'penalty': 'elasticnet'}	0.0	0.0	0.0	0.0	0.0	0.0	0.0	17	Learner_1
0.2481070041656494	0.05603251104938931	0.0062961578369140625	0.0009491004456969731	0.001	0.6	hinge	elasticnet	{'alpha': 0.001, 'l1_ratio': 0.6, 'loss': 'hinge', 'penalty': 'elasticnet'}	0.0	0.0	0.0	0.0	0.0	0.0	0.0	17	Learner_1
0.8485581874847412	0.10218312892771271	0.006840896606445312	0.0012448644995232308	0.001	0.6	log	elasticnet	{'alpha': 0.001, 'l1_ratio': 0.6, 'loss': 'log', 'penalty': 'elasticnet'}	0.0	0.0	0.0	0.0	0.0	0.0	0.0	17	Learner_1
0.24813594818115234	0.05317891466961896	0.006388044357299805	0.0008162450589702398	0.001	0.8	hinge	elasticnet	{'alpha': 0.001, 'l1_ratio': 0.8, 'loss': 'hinge', 'penalty': 'elasticnet'}	0.0	0.0	0.0	0.0	0.0	0.0	0.0	17	Learner_1
0.8028789520263672	0.16639909362495575	0.00753931999206543	0.001502110512768552	0.001	0.8	log	elasticnet	{'alpha': 0.001, 'l1_ratio': 0.8, 'loss': 'log', 'penalty': 'elasticnet'}	0.0	0.0	0.0	0.0	0.0	0.0	0.0	17	Learner_1
0.25306172370910646	0.05167867804900168	0.006375360488891602	0.0008778428512178323	0.001	0.95	hinge	elasticnet	{'alpha': 0.001, 'l1_ratio': 0.95, 'loss': 'hinge', 'penalty': 'elasticnet'}	0.0	0.0	0.0	0.0	0.0	0.0	0.0	17	Learner_1
0.7978898525238037	0.10202104156062801	0.007392358779907226	0.0010220633743196785	0.001	0.95	log	elasticnet	{'alpha': 0.001, 'l1_ratio': 0.95, 'loss': 'log', 'penalty': 'elasticnet'}	0.0	0.0	0.0	0.0	0.0	0.0	0.0	17	Learner_1
0.20801177024841308	0.006603861464004415	0.005464744567871094	0.00025870085367919607	0.001	1	hinge	elasticnet	{'alpha': 0.001, 'l1_ratio': 1, 'loss': 'hinge', 'penalty': 'elasticnet'}	0.0	0.0	0.0	0.0	0.0	0.0	0.0	17	Learner_1
0.8517315864562989	0.11807991305091176	0.006909799575805664	0.0007523753519326763	0.001	1	log	elasticnet	{'alpha': 0.001, 'l1_ratio': 1, 'loss': 'log', 'penalty': 'elasticnet'}	0.0	0.0	0.0	0.0	0.0	0.0	0.0	17	Learner_1
1.1046332836151123	0.24337484541529017	0.006486368179321289	0.000960750309375992	0.0001	0	hinge	elasticnet	{'alpha': 0.0001, 'l1_ratio': 0, 'loss': 'hinge', 'penalty': 'elasticnet'}	0.6666666666666666	0.25	0.2857142857142857	0.8	0.6666666666666666	0.5338095238095237	0.22282661573580503	4	Learner_1
0.7625749111175537	0.15757195226235876	0.006085062026977539	0.0009369183121056795	0.0001	0	log	elasticnet	{'alpha': 0.0001, 'l1_ratio': 0, 'loss': 'log', 'penalty': 'elasticnet'}	0.0	0.0	0.0	0.2857142857142857	0.0	0.05714285714285714	0.11428571428571428	13	Learner_1
1.0433844566345214	0.19794468155079573	0.0067173480987548825	0.0006764187218152437	0.0001	0.05	hinge	elasticnet	{'alpha': 0.0001, 'l1_ratio': 0.05, 'loss': 'hinge', 'penalty': 'elasticnet'}	0.6666666666666666	0.0	0.4444444444444444	0.8	0.8	0.5422222222222223	0.3006495026717825	3	Learner_1
0.8454605102539062	0.20138907054936744	0.006462812423706055	0.0009037435422534235	0.0001	0.05	log	elasticnet	{'alpha': 0.0001, 'l1_ratio': 0.05, 'loss': 'log', 'penalty': 'elasticnet'}	0.0	0.0	0.0	0.2857142857142857	0.0	0.05714285714285714	0.11428571428571428	13	Learner_1
0.7033089637756348	0.1636627566480481	0.006437826156616211	0.0009605442488102164	0.0001	0.25	hinge	elasticnet	{'alpha': 0.0001, 'l1_ratio': 0.25, 'loss': 'hinge', 'penalty': 'elasticnet'}	0.5	0.0	0.2857142857142857	0.8	0.8	0.4771428571428572	0.3076706428793555	8	Learner_1
0.8764264106750488	0.1985227177451265	0.006722068786621094	0.0010671198157497152	0.0001	0.25	log	elasticnet	{'alpha': 0.0001, 'l1_ratio': 0.25, 'loss': 'log', 'penalty': 'elasticnet'}	0.0	0.0	0.0	0.2857142857142857	0.0	0.05714285714285714	0.11428571428571428	13	Learner_1
0.6707890510559082	0.14815939137359496	0.006668472290039062	0.0008469536798051753	0.0001	0.3	hinge	elasticnet	{'alpha': 0.0001, 'l1_ratio': 0.3, 'loss': 'hinge', 'penalty': 'elasticnet'}	0.5	0.25	0.2857142857142857	0.8	0.8	0.5271428571428571	0.23863557734652688	5	Learner_1
0.8343644618988038	0.13876074317961845	0.006890010833740234	0.001171300347550342	0.0001	0.3	log	elasticnet	{'alpha': 0.0001, 'l1_ratio': 0.3, 'loss': 'log', 'penalty': 'elasticnet'}	0.0	0.0	0.0	0.2857142857142857	0.0	0.05714285714285714	0.11428571428571428	13	Learner_1
0.6111161231994628	0.13251737840581418	0.007051277160644531	0.001001382116754719	0.0001	0.6	hinge	elasticnet	{'alpha': 0.0001, 'l1_ratio': 0.6, 'loss': 'hinge', 'penalty': 'elasticnet'}	0.5	0.25	0.5	0.8	0.8	0.57	0.208806130178211	1	Learner_1
0.9158227920532227	0.1575851818887682	0.007155275344848633	0.0014808313229099073	0.0001	0.6	log	elasticnet	{'alpha': 0.0001, 'l1_ratio': 0.6, 'loss': 'log', 'penalty': 'elasticnet'}	0.0	0.0	0.0	0.5	0.0	0.1	0.2	11	Learner_1
0.6153638362884521	0.153647977200811	0.0068893909454345705	0.0007216231703294156	0.0001	0.8	hinge	elasticnet	{'alpha': 0.0001, 'l1_ratio': 0.8, 'loss': 'hinge', 'penalty': 'elasticnet'}	0.5	0.4444444444444444	0.2857142857142857	0.8	0.8	0.566031746031746	0.20357005166773437	2	Learner_1
0.9908417224884033	0.1893881946874963	0.006897687911987305	0.0011011410536333679	0.0001	0.8	log	elasticnet	{'alpha': 0.0001, 'l1_ratio': 0.8, 'loss': 'log', 'penalty': 'elasticnet'}	0.0	0.0	0.0	0.5	0.0	0.1	0.2	11	Learner_1
0.5424901485443115	0.1701709326289364	0.006336307525634766	0.0008130289393717196	0.0001	0.95	hinge	elasticnet	{'alpha': 0.0001, 'l1_ratio': 0.95, 'loss': 'hinge', 'penalty': 'elasticnet'}	0.5	0.25	0.5	0.5	0.8	0.51	0.17435595774162696	6	Learner_1
0.9979833126068115	0.14899484168384328	0.006800460815429688	0.000979578220478506	0.0001	0.95	log	elasticnet	{'alpha': 0.0001, 'l1_ratio': 0.95, 'loss': 'log', 'penalty': 'elasticnet'}	0.0	0.0	0.2857142857142857	0.6666666666666666	0.6666666666666666	0.3238095238095238	0.2987502312639642	9	Learner_1
0.5226374626159668	0.10271660163410987	0.007130956649780274	0.0009241523698704435	0.0001	1	hinge	elasticnet	{'alpha': 0.0001, 'l1_ratio': 1, 'loss': 'hinge', 'penalty': 'elasticnet'}	0.5	0.4444444444444444	0.2857142857142857	0.5	0.8	0.506031746031746	0.1666270550055229	7	Learner_1
0.9880786895751953	0.18424698013433058	0.006676721572875977	0.0007571621755784353	0.0001	1	log	elasticnet	{'alpha': 0.0001, 'l1_ratio': 1, 'loss': 'log', 'penalty': 'elasticnet'}	0.0	0.0	0.2857142857142857	0.6666666666666666	0.6666666666666666	0.3238095238095238	0.2987502312639642	9	Learner_1
0.6501231670379639	0.08101722570133597	0.006613302230834961	0.0010111358350662174	0.0005	0	hinge	elasticnet	{'alpha': 0.0005, 'l1_ratio': 0, 'loss': 'hinge', 'penalty': 'elasticnet'}	0.0	0.0	0.0	0.0	0.0	0.0	0.0	17	Learner_1
0.7105085372924804	0.12661236083001898	0.006877088546752929	0.0012541715477371275	0.0005	0	log	elasticnet	{'alpha': 0.0005, 'l1_ratio': 0, 'loss': 'log', 'penalty': 'elasticnet'}	0.0	0.0	0.0	0.0	0.0	0.0	0.0	17	Learner_1
0.4298741340637207	0.07997413727912146	0.006737470626831055	0.0011420977515535378	0.0005	0.05	hinge	elasticnet	{'alpha': 0.0005, 'l1_ratio': 0.05, 'loss': 'hinge', 'penalty': 'elasticnet'}	0.0	0.0	0.0	0.0	0.0	0.0	0.0	17	Learner_1
0.7292158603668213	0.145017082475677	0.006737661361694336	0.0010597251296620715	0.0005	0.05	log	elasticnet	{'alpha': 0.0005, 'l1_ratio': 0.05, 'loss': 'log', 'penalty': 'elasticnet'}	0.0	0.0	0.0	0.0	0.0	0.0	0.0	17	Learner_1
0.26735553741455076	0.06045117548182569	0.0063530921936035155	0.0008867679414098366	0.0005	0.25	hinge	elasticnet	{'alpha': 0.0005, 'l1_ratio': 0.25, 'loss': 'hinge', 'penalty': 'elasticnet'}	0.0	0.0	0.0	0.0	0.0	0.0	0.0	17	Learner_1
0.735891580581665	0.16836903670313344	0.007346105575561523	0.001955521710720103	0.0005	0.25	log	elasticnet	{'alpha': 0.0005, 'l1_ratio': 0.25, 'loss': 'log', 'penalty': 'elasticnet'}	0.0	0.0	0.0	0.0	0.0	0.0	0.0	17	Learner_1
0.27211775779724123	0.051432235404250445	0.0063629627227783205	0.0010168372048660276	0.0005	0.3	hinge	elasticnet	{'alpha': 0.0005, 'l1_ratio': 0.3, 'loss': 'hinge', 'penalty': 'elasticnet'}	0.0	0.0	0.0	0.0	0.0	0.0	0.0	17	Learner_1
0.7340234279632568	0.16544518538447076	0.006841325759887695	0.0011454255498232104	0.0005	0.3	log	elasticnet	{'alpha': 0.0005, 'l1_ratio': 0.3, 'loss': 'log', 'penalty': 'elasticnet'}	0.0	0.0	0.0	0.0	0.0	0.0	0.0	17	Learner_1
0.25380473136901854	0.054205894984979845	0.006258058547973633	0.0009943190105021623	0.0005	0.6	hinge	elasticnet	{'alpha': 0.0005, 'l1_ratio': 0.6, 'loss': 'hinge', 'penalty': 'elasticnet'}	0.0	0.0	0.0	0.0	0.0	0.0	0.0	17	Learner_1
0.7544185161590576	0.12370930439587081	0.007141304016113281	0.0012965064786354685	0.0005	0.6	log	elasticnet	{'alpha': 0.0005, 'l1_ratio': 0.6, 'loss': 'log', 'penalty': 'elasticnet'}	0.0	0.0	0.0	0.0	0.0	0.0	0.0	17	Learner_1
0.3025308609008789	0.053384697783192284	0.007381153106689453	0.001037772690686322	0.0005	0.8	hinge	elasticnet	{'alpha': 0.0005, 'l1_ratio': 0.8, 'loss': 'hinge', 'penalty': 'elasticnet'}	0.0	0.0	0.0	0.0	0.0	0.0	0.0	17	Learner_1
0.6980105876922608	0.10007936836157533	0.006783914566040039	0.0010318048359473082	0.0005	0.8	log	elasticnet	{'alpha': 0.0005, 'l1_ratio': 0.8, 'loss': 'log', 'penalty': 'elasticnet'}	0.0	0.0	0.0	0.0	0.0	0.0	0.0	17	Learner_1
0.24621329307556153	0.054660280929539486	0.006192445755004883	0.0007640174908552686	0.0005	0.95	hinge	elasticnet	{'alpha': 0.0005, 'l1_ratio': 0.95, 'loss': 'hinge', 'penalty': 'elasticnet'}	0.0	0.0	0.0	0.0	0.0	0.0	0.0	17	Learner_1
0.6934345245361329	0.07212549321729078	0.006640911102294922	0.001041309797910421	0.0005	0.95	log	elasticnet	{'alpha': 0.0005, 'l1_ratio': 0.95, 'loss': 'log', 'penalty': 'elasticnet'}	0.0	0.0	0.0	0.0	0.0	0.0	0.0	17	Learner_1
0.27599201202392576	0.05984054988480224	0.006716680526733398	0.0008333244894448108	0.0005	1	hinge	elasticnet	{'alpha': 0.0005, 'l1_ratio': 1, 'loss': 'hinge', 'penalty': 'elasticnet'}	0.0	0.0	0.0	0.0	0.0	0.0	0.0	17	Learner_1
0.6153606414794922	0.07917309081213089	0.004755258560180664	0.000322255674652442	0.0005	1	log	elasticnet	{'alpha': 0.0005, 'l1_ratio': 1, 'loss': 'log', 'penalty': 'elasticnet'}	0.0	0.0	0.0	0.0	0.0	0.0	0.0	17	Learner_1
0.2500009059906006	0.036385051078013056	0.004496479034423828	0.0005615668030636217	0.01	0	hinge	elasticnet	{'alpha': 0.01, 'l1_ratio': 0, 'loss': 'hinge', 'penalty': 'elasticnet'}	0.0	0.0	0.0	0.0	0.0	0.0	0.0	17	Learner_2
0.8207367420196533	0.23049613469761238	0.006155490875244141	0.0010220832135860952	0.01	0	log	elasticnet	{'alpha': 0.01, 'l1_ratio': 0, 'loss': 'log', 'penalty': 'elasticnet'}	0.0	0.0	0.0	0.0	0.0	0.0	0.0	17	Learner_2
0.2673429012298584	0.05167150132065093	0.006113290786743164	0.0009434355187040758	0.01	0.05	hinge	elasticnet	{'alpha': 0.01, 'l1_ratio': 0.05, 'loss': 'hinge', 'penalty': 'elasticnet'}	0.0	0.0	0.0	0.0	0.0	0.0	0.0	17	Learner_2
1.4954925060272217	0.3259512993147732	0.006619691848754883	0.0008994595506349463	0.01	0.05	log	elasticnet	{'alpha': 0.01, 'l1_ratio': 0.05, 'loss': 'log', 'penalty': 'elasticnet'}	0.0	0.0	0.0	0.0	0.0	0.0	0.0	17	Learner_2
0.27729244232177735	0.04891972470447648	0.006772422790527343	0.0009344337469729566	0.01	0.25	hinge	elasticnet	{'alpha': 0.01, 'l1_ratio': 0.25, 'loss': 'hinge', 'penalty': 'elasticnet'}	0.0	0.0	0.0	0.0	0.0	0.0	0.0	17	Learner_2
1.9142908573150634	0.32132369471963157	0.006586933135986328	0.0007064307753792585	0.01	0.25	log	elasticnet	{'alpha': 0.01, 'l1_ratio': 0.25, 'loss': 'log', 'penalty': 'elasticnet'}	0.0	0.0	0.0	0.0	0.0	0.0	0.0	17	Learner_2
0.2790788173675537	0.051442722718105224	0.006856107711791992	0.0008174004764251255	0.01	0.3	hinge	elasticnet	{'alpha': 0.01, 'l1_ratio': 0.3, 'loss': 'hinge', 'penalty': 'elasticnet'}	0.0	0.0	0.0	0.0	0.0	0.0	0.0	17	Learner_2
1.9326356887817382	0.3526640789621319	0.006598043441772461	0.0005963450141810851	0.01	0.3	log	elasticnet	{'alpha': 0.01, 'l1_ratio': 0.3, 'loss': 'log', 'penalty': 'elasticnet'}	0.0	0.0	0.0	0.0	0.0	0.0	0.0	17	Learner_2
0.25988059043884276	0.053933285765841416	0.006526660919189453	0.0009350096333997325	0.01	0.6	hinge	elasticnet	{'alpha': 0.01, 'l1_ratio': 0.6, 'loss': 'hinge', 'penalty': 'elasticnet'}	0.0	0.0	0.0	0.0	0.0	0.0	0.0	17	Learner_2
1.9165704250335693	0.26575875350871764	0.006967782974243164	0.000282458063798362	0.01	0.6	log	elasticnet	{'alpha': 0.01, 'l1_ratio': 0.6, 'loss': 'log', 'penalty': 'elasticnet'}	0.0	0.0	0.0	0.0	0.0	0.0	0.0	17	Learner_2
0.3018515110015869	0.0038124240241210576	0.006877231597900391	0.00024290051140104718	0.01	0.8	hinge	elasticnet	{'alpha': 0.01, 'l1_ratio': 0.8, 'loss': 'hinge', 'penalty': 'elasticnet'}	0.0	0.0	0.0	0.0	0.0	0.0	0.0	17	Learner_2
1.8773709774017333	0.3224287013616244	0.006551170349121093	0.0008594431720134844	0.01	0.8	log	elasticnet	{'alpha': 0.01, 'l1_ratio': 0.8, 'loss': 'log', 'penalty': 'elasticnet'}	0.0	0.0	0.0	0.0	0.0	0.0	0.0	17	Learner_2
0.26842384338378905	0.05342353482431734	0.006530094146728516	0.000884165319877848	0.01	0.95	hinge	elasticnet	{'alpha': 0.01, 'l1_ratio': 0.95, 'loss': 'hinge', 'penalty': 'elasticnet'}	0.0	0.0	0.0	0.0	0.0	0.0	0.0	17	Learner_2
1.9153335571289063	0.3604093910538341	0.0065325736999511715	0.0008802634997913965	0.01	0.95	log	elasticnet	{'alpha': 0.01, 'l1_ratio': 0.95, 'loss': 'log', 'penalty': 'elasticnet'}	0.0	0.0	0.0	0.0	0.0	0.0	0.0	17	Learner_2
0.26960225105285646	0.05608038880577356	0.006701898574829101	0.0005379376726820269	0.01	1	hinge	elasticnet	{'alpha': 0.01, 'l1_ratio': 1, 'loss': 'hinge', 'penalty': 'elasticnet'}	0.0	0.0	0.0	0.0	0.0	0.0	0.0	17	Learner_2
1.9030074596405029	0.3357721668256174	0.006737375259399414	0.0009995574043349064	0.01	1	log	elasticnet	{'alpha': 0.01, 'l1_ratio': 1, 'loss': 'log', 'penalty': 'elasticnet'}	0.0	0.0	0.0	0.0	0.0	0.0	0.0	17	Learner_2
0.4479715347290039	0.08624177163239373	0.006134510040283203	0.0008518838160596587	0.001	0	hinge	elasticnet	{'alpha': 0.001, 'l1_ratio': 0, 'loss': 'hinge', 'penalty': 'elasticnet'}	0.0	0.0	0.0	0.0	0.0	0.0	0.0	17	Learner_2
0.6272458553314209	0.17660120117769162	0.0064029693603515625	0.0011265537067236806	0.001	0	log	elasticnet	{'alpha': 0.001, 'l1_ratio': 0, 'loss': 'log', 'penalty': 'elasticnet'}	0.0	0.0	0.0	0.0	0.0	0.0	0.0	17	Learner_2
0.313883113861084	0.0731534260814657	0.006709146499633789	0.0010797366659637125	0.001	0.05	hinge	elasticnet	{'alpha': 0.001, 'l1_ratio': 0.05, 'loss': 'hinge', 'penalty': 'elasticnet'}	0.0	0.0	0.0	0.0	0.0	0.0	0.0	17	Learner_2
0.7711409568786621	0.15270541124643042	0.0067331790924072266	0.001132084955383132	0.001	0.05	log	elasticnet	{'alpha': 0.001, 'l1_ratio': 0.05, 'loss': 'log', 'penalty': 'elasticnet'}	0.0	0.0	0.0	0.0	0.0	0.0	0.0	17	Learner_2
0.27823824882507325	0.05935970728012344	0.006641864776611328	0.0011347468591181363	0.001	0.25	hinge	elasticnet	{'alpha': 0.001, 'l1_ratio': 0.25, 'loss': 'hinge', 'penalty': 'elasticnet'}	0.0	0.0	0.0	0.0	0.0	0.0	0.0	17	Learner_2
0.7497431755065918	0.16616150991643014	0.006748342514038086	0.0012147237188492755	0.001	0.25	log	elasticnet	{'alpha': 0.001, 'l1_ratio': 0.25, 'loss': 'log', 'penalty': 'elasticnet'}	0.0	0.0	0.0	0.0	0.0	0.0	0.0	17	Learner_2
0.25451436042785647	0.06135896789426887	0.00626225471496582	0.001037410261608539	0.001	0.3	hinge	elasticnet	{'alpha': 0.001, 'l1_ratio': 0.3, 'loss': 'hinge', 'penalty': 'elasticnet'}	0.0	0.0	0.0	0.0	0.0	0.0	0.0	17	Learner_2
0.7736414432525635	0.16891159160264957	0.006726312637329102	0.0011848048913708352	0.001	0.3	log	elasticnet	{'alpha': 0.001, 'l1_ratio': 0.3, 'loss': 'log', 'penalty': 'elasticnet'}	0.0	0.0	0.0	0.0	0.0	0.0	0.0	17	Learner_2
0.2478010654449463	0.05580806718712477	0.006514739990234375	0.0009017257999146753	0.001	0.6	hinge	elasticnet	{'alpha': 0.001, 'l1_ratio': 0.6, 'loss': 'hinge', 'penalty': 'elasticnet'}	0.0	0.0	0.0	0.0	0.0	0.0	0.0	17	Learner_2
0.7939003944396973	0.1248870975865058	0.006710529327392578	0.001135147466111199	0.001	0.6	log	elasticnet	{'alpha': 0.001, 'l1_ratio': 0.6, 'loss': 'log', 'penalty': 'elasticnet'}	0.0	0.0	0.0	0.0	0.0	0.0	0.0	17	Learner_2
0.26911282539367676	0.05966517903464044	0.0067389488220214845	0.001053459093913436	0.001	0.8	hinge	elasticnet	{'alpha': 0.001, 'l1_ratio': 0.8, 'loss': 'hinge', 'penalty': 'elasticnet'}	0.0	0.0	0.0	0.0	0.0	0.0	0.0	17	Learner_2
0.8303009510040283	0.21640093877576352	0.007138347625732422	0.0008809122053712262	0.001	0.8	log	elasticnet	{'alpha': 0.001, 'l1_ratio': 0.8, 'loss': 'log', 'penalty': 'elasticnet'}	0.0	0.0	0.0	0.0	0.0	0.0	0.0	17	Learner_2
0.24746689796447754	0.05783968588552304	0.00618133544921875	0.0007945497460977484	0.001	0.95	hinge	elasticnet	{'alpha': 0.001, 'l1_ratio': 0.95, 'loss': 'hinge', 'penalty': 'elasticnet'}	0.0	0.0	0.0	0.0	0.0	0.0	0.0	17	Learner_2
0.8115368366241456	0.1817808998903139	0.006758689880371094	0.0011203111802213527	0.001	0.95	log	elasticnet	{'alpha': 0.001, 'l1_ratio': 0.95, 'loss': 'log', 'penalty': 'elasticnet'}	0.0	0.0	0.0	0.0	0.0	0.0	0.0	17	Learner_2
0.28207902908325194	0.05922336341425599	0.006800127029418945	0.0009319919110413428	0.001	1	hinge	elasticnet	{'alpha': 0.001, 'l1_ratio': 1, 'loss': 'hinge', 'penalty': 'elasticnet'}	0.0	0.0	0.0	0.0	0.0	0.0	0.0	17	Learner_2
0.8037001132965088	0.15172196466517557	0.006448793411254883	0.0009459635195781476	0.001	1	log	elasticnet	{'alpha': 0.001, 'l1_ratio': 1, 'loss': 'log', 'penalty': 'elasticnet'}	0.0	0.0	0.0	0.0	0.0	0.0	0.0	17	Learner_2
1.0755937099456787	0.3095629933237283	0.006423521041870117	0.0009598621300496334	0.0001	0	hinge	elasticnet	{'alpha': 0.0001, 'l1_ratio': 0, 'loss': 'hinge', 'penalty': 'elasticnet'}	0.6666666666666666	0.0	0.4444444444444444	0.8	0.6666666666666666	0.5155555555555555	0.28193336048273254	4	Learner_2
0.8227456092834473	0.28868742807042436	0.006102323532104492	0.0009545350720270026	0.0001	0	log	elasticnet	{'alpha': 0.0001, 'l1_ratio': 0, 'loss': 'log', 'penalty': 'elasticnet'}	0.0	0.0	0.0	0.2857142857142857	0.0	0.05714285714285714	0.11428571428571428	14	Learner_2
1.0887059688568115	0.23472024450767173	0.0066815376281738285	0.0008586009581434289	0.0001	0.05	hinge	elasticnet	{'alpha': 0.0001, 'l1_ratio': 0.05, 'loss': 'hinge', 'penalty': 'elasticnet'}	0.6666666666666666	0.25	0.2857142857142857	0.8	0.8	0.5604761904761905	0.2440939561120489	1	Learner_2
0.7854996681213379	0.22003224194346635	0.006211185455322265	0.0009504679733856462	0.0001	0.05	log	elasticnet	{'alpha': 0.0001, 'l1_ratio': 0.05, 'loss': 'log', 'penalty': 'elasticnet'}	0.0	0.0	0.0	0.2857142857142857	0.0	0.05714285714285714	0.11428571428571428	14	Learner_2
0.6748939990997315	0.07821263976200357	0.006569480895996094	0.0009586148866477252	0.0001	0.25	hinge	elasticnet	{'alpha': 0.0001, 'l1_ratio': 0.25, 'loss': 'hinge', 'penalty': 'elasticnet'}	0.5	0.25	0.2857142857142857	0.8	0.8	0.5271428571428571	0.23863557734652688	3	Learner_2
0.9235160827636719	0.1190990640382331	0.0073264122009277345	0.000996910030031855	0.0001	0.25	log	elasticnet	{'alpha': 0.0001, 'l1_ratio': 0.25, 'loss': 'log', 'penalty': 'elasticnet'}	0.0	0.0	0.0	0.2857142857142857	0.0	0.05714285714285714	0.11428571428571428	14	Learner_2
0.5933958053588867	0.18709203705646846	0.0064522743225097655	0.0009721134188171892	0.0001	0.3	hinge	elasticnet	{'alpha': 0.0001, 'l1_ratio': 0.3, 'loss': 'hinge', 'penalty': 'elasticnet'}	0.5	0.25	0.2857142857142857	0.8	0.6666666666666666	0.5004761904761905	0.2126946220936808	5	Learner_2
0.9168638706207275	0.19947057603890717	0.006682682037353516	0.0010664794244277566	0.0001	0.3	log	elasticnet	{'alpha': 0.0001, 'l1_ratio': 0.3, 'loss': 'log', 'penalty': 'elasticnet'}	0.0	0.0	0.0	0.5	0.0	0.1	0.2	11	Learner_2
0.49646673202514646	0.07100226193138968	0.006349515914916992	0.0011544379296738003	0.0001	0.6	hinge	elasticnet	{'alpha': 0.0001, 'l1_ratio': 0.6, 'loss': 'hinge', 'penalty': 'elasticnet'}	0.5	0.25	0.2857142857142857	0.8	0.6666666666666666	0.5004761904761905	0.2126946220936808	5	Learner_2
0.9872425556182861	0.13522538378489493	0.007725238800048828	0.001468752124201595	0.0001	0.6	log	elasticnet	{'alpha': 0.0001, 'l1_ratio': 0.6, 'loss': 'log', 'penalty': 'elasticnet'}	0.0	0.0	0.0	0.5	0.0	0.1	0.2	11	Learner_2
0.5530129909515381	0.15621305120525927	0.006294822692871094	0.0007871683440348067	0.0001	0.8	hinge	elasticnet	{'alpha': 0.0001, 'l1_ratio': 0.8, 'loss': 'hinge', 'penalty': 'elasticnet'}	0.5	0.25	0.5	0.8	0.6666666666666666	0.5433333333333332	0.18487232831816064	2	Learner_2
0.9831490039825439	0.2031233170786625	0.0069907188415527345	0.0011132824000193958	0.0001	0.8	log	elasticnet	{'alpha': 0.0001, 'l1_ratio': 0.8, 'loss': 'log', 'penalty': 'elasticnet'}	0.0	0.0	0.0	0.5	0.0	0.1	0.2	11	Learner_2
0.5034006118774415	0.10914857415073473	0.006497001647949219	0.0007779853982021448	0.0001	0.95	hinge	elasticnet	{'alpha': 0.0001, 'l1_ratio': 0.95, 'loss': 'hinge', 'penalty': 'elasticnet'}	0.5	0.25	0.5	0.5	0.6666666666666666	0.4833333333333333	0.13333333333333333	7	Learner_2
0.9947153091430664	0.1983315525766558	0.007376813888549804	0.001556042056422683	0.0001	0.95	log	elasticnet	{'alpha': 0.0001, 'l1_ratio': 0.95, 'loss': 'log', 'penalty': 'elasticnet'}	0.0	0.0	0.0	0.5	0.2857142857142857	0.15714285714285714	0.20404081224408144	10	Learner_2
0.5851387023925781	0.12432223880164231	0.007457590103149414	0.0020815585728044123	0.0001	1	hinge	elasticnet	{'alpha': 0.0001, 'l1_ratio': 1, 'loss': 'hinge', 'penalty': 'elasticnet'}	0.5	0.25	0.5	0.5	0.6666666666666666	0.4833333333333333	0.13333333333333333	7	Learner_2
1.014517116546631	0.18643232808533938	0.006444549560546875	0.0009244287117857037	0.0001	1	log	elasticnet	{'alpha': 0.0001, 'l1_ratio': 1, 'loss': 'log', 'penalty': 'elasticnet'}	0.0	0.0	0.2857142857142857	0.5	0.6666666666666666	0.29047619047619044	0.266155973571088	9	Learner_2
0.5603771209716797	0.0980121025805274	0.006132364273071289	0.0009716891858206342	0.0005	0	hinge	elasticnet	{'alpha': 0.0005, 'l1_ratio': 0, 'loss': 'hinge', 'penalty': 'elasticnet'}	0.0	0.0	0.0	0.0	0.0	0.0	0.0	17	Learner_2
0.7111196994781495	0.159974005008556	0.006921100616455078	0.0011316612074735298	0.0005	0	log	elasticnet	{'alpha': 0.0005, 'l1_ratio': 0, 'loss': 'log', 'penalty': 'elasticnet'}	0.0	0.0	0.0	0.0	0.0	0.0	0.0	17	Learner_2
0.44988436698913575	0.10226712165342546	0.0065056800842285155	0.0009592271721036597	0.0005	0.05	hinge	elasticnet	{'alpha': 0.0005, 'l1_ratio': 0.05, 'loss': 'hinge', 'penalty': 'elasticnet'}	0.0	0.0	0.0	0.0	0.0	0.0	0.0	17	Learner_2
0.848489236831665	0.17335071434668475	0.007173490524291992	0.0007628477220225662	0.0005	0.05	log	elasticnet	{'alpha': 0.0005, 'l1_ratio': 0.05, 'loss': 'log', 'penalty': 'elasticnet'}	0.0	0.0	0.0	0.0	0.0	0.0	0.0	17	Learner_2
0.2218264102935791	0.007649031212576454	0.005905675888061524	0.0007280507759335974	0.0005	0.25	hinge	elasticnet	{'alpha': 0.0005, 'l1_ratio': 0.25, 'loss': 'hinge', 'penalty': 'elasticnet'}	0.0	0.0	0.0	0.0	0.0	0.0	0.0	17	Learner_2
0.7370760440826416	0.15839651157575002	0.00758051872253418	0.0020308874612151103	0.0005	0.25	log	elasticnet	{'alpha': 0.0005, 'l1_ratio': 0.25, 'loss': 'log', 'penalty': 'elasticnet'}	0.0	0.0	0.0	0.0	0.0	0.0	0.0	17	Learner_2
0.29081029891967775	0.059297365907779884	0.006954860687255859	0.0006930095642434138	0.0005	0.3	hinge	elasticnet	{'alpha': 0.0005, 'l1_ratio': 0.3, 'loss': 'hinge', 'penalty': 'elasticnet'}	0.0	0.0	0.0	0.0	0.0	0.0	0.0	17	Learner_2
0.7642314910888672	0.14063351219299175	0.006930780410766601	0.0011566894248270724	0.0005	0.3	log	elasticnet	{'alpha': 0.0005, 'l1_ratio': 0.3, 'loss': 'log', 'penalty': 'elasticnet'}	0.0	0.0	0.0	0.0	0.0	0.0	0.0	17	Learner_2
0.25768022537231444	0.05328384273547744	0.006486701965332031	0.0009014841915043459	0.0005	0.6	hinge	elasticnet	{'alpha': 0.0005, 'l1_ratio': 0.6, 'loss': 'hinge', 'penalty': 'elasticnet'}	0.0	0.0	0.0	0.0	0.0	0.0	0.0	17	Learner_2
0.7378803253173828	0.13415232996610998	0.006776332855224609	0.0012307630025498104	0.0005	0.6	log	elasticnet	{'alpha': 0.0005, 'l1_ratio': 0.6, 'loss': 'log', 'penalty': 'elasticnet'}	0.0	0.0	0.0	0.0	0.0	0.0	0.0	17	Learner_2
0.2473240852355957	0.05253042390903854	0.006521797180175782	0.0006555362358059755	0.0005	0.8	hinge	elasticnet	{'alpha': 0.0005, 'l1_ratio': 0.8, 'loss': 'hinge', 'penalty': 'elasticnet'}	0.0	0.0	0.0	0.0	0.0	0.0	0.0	17	Learner_2
0.767626142501831	0.10199474261658048	0.007594060897827148	0.0012793107244026523	0.0005	0.8	log	elasticnet	{'alpha': 0.0005, 'l1_ratio': 0.8, 'loss': 'log', 'penalty': 'elasticnet'}	0.0	0.0	0.0	0.0	0.0	0.0	0.0	17	Learner_2
0.20491137504577636	0.008110021084984188	0.005536127090454102	0.00017819171732503026	0.0005	0.95	hinge	elasticnet	{'alpha': 0.0005, 'l1_ratio': 0.95, 'loss': 'hinge', 'penalty': 'elasticnet'}	0.0	0.0	0.0	0.0	0.0	0.0	0.0	17	Learner_2
0.8021296501159668	0.11440556050016441	0.0070686817169189455	0.000879746457562442	0.0005	0.95	log	elasticnet	{'alpha': 0.0005, 'l1_ratio': 0.95, 'loss': 'log', 'penalty': 'elasticnet'}	0.0	0.0	0.0	0.0	0.0	0.0	0.0	17	Learner_2
0.20122971534729003	0.0070361734479448875	0.005406332015991211	0.00021771401914924486	0.0005	1	hinge	elasticnet	{'alpha': 0.0005, 'l1_ratio': 1, 'loss': 'hinge', 'penalty': 'elasticnet'}	0.0	0.0	0.0	0.0	0.0	0.0	0.0	17	Learner_2
0.6205466747283935	0.04847115965571952	0.004752254486083985	0.00022669836486943849	0.0005	1	log	elasticnet	{'alpha': 0.0005, 'l1_ratio': 1, 'loss': 'log', 'penalty': 'elasticnet'}	0.0	0.0	0.0	0.0	0.0	0.0	0.0	17	Learner_2
