Importance	Feature subspace
0.6719271192371861	document_graph
1.1874048542871933	neural_features_dbow
0.9732095425021384	neural_features_dm
0.31317344274065556	topic_features
0.303068597394339	keyword_features
0.3703892550415585	relational_features_char
0.4039072145142359	relational_features_token
0.47630144532639046	char_features
0.2822800588040932	word_features
